<svg width="16" height="16" version="1.1" viewBox="0 0 16 16" xml:space="preserve" xmlns="http://www.w3.org/2000/svg"><defs><style id="current-color-scheme" type="text/css">
      .ColorScheme-Text {
        color:#232629;
      }
      </style><style type="text/css">
      .ColorScheme-Text {
        color:#232629;
      }
      </style></defs><g fill="#786d7d"><path d="m8 2c-3.8601 0-7 3.1398-7 7 0 3.8601 3.1398 7 7 7 3.8601 0 7-3.1398 7-7 0-0.27424-0.015833-0.54423-0.04668-0.81002-0.013455-0.11593-0.12215-0.20896-0.23886-0.20829l-0.58908 0.00341c-0.11671 6.76e-4 -0.1951 0.09447-0.17952 0.21013 0.035442 0.26317 0.054143 0.53143 0.054143 0.80477 0 3.3196-2.6804 6-6 6-3.3196 0-6-2.6804-6-6 0-3.3196 2.6804-6 6-6 1.1191 0 2.1652 0.30483 3.0605 0.83594l0.10281 0.041594a0.21838 0.21838 164.94 0 0 0.25435-0.068453l0.0083-0.010736a0.25693 0.25693 95.122 0 0 0.0248-0.27668l-0.36063-0.6898c-0.04225-0.080804-0.14307-0.17848-0.22618-0.21598-0.87458-0.39465-1.8434-0.61588-2.864-0.61588z" style="-inkscape-stroke:none;paint-order:markers stroke fill"/><path d="m12 2.3772v0.36546a0.25738 0.25738 45 0 0 0.25738 0.25738h1.7426v1h-1.1533a0.84671 0.84671 135 0 0-0.84671 0.84671v1.3288a0.82444 0.82444 45 0 0 0.82444 0.82444h2.0084a0.16713 0.16713 135 0 0 0.16713-0.16713v-0.47792a0.35496 0.35496 45 0 0-0.35496-0.35496h-1.645v-1h1.1545a0.84551 0.84551 135 0 0 0.84551-0.84551v-1.2612a0.89324 0.89324 45 0 0-0.89324-0.89324h-1.7296a0.37717 0.37717 135 0 0-0.37717 0.37717z" stroke-linejoin="round"/><circle cx="12.5" cy=".5" r=".5" stroke-linejoin="round"/></g></svg>
