<?xml version="1.0" encoding="UTF-8" standalone="no"?>
<svg
   viewBox="0 0 16 16"
   version="1.1"
   id="svg3497"
   sodipodi:docname="bordertool.svg"
   inkscape:version="1.2.2 (b0a8486541, 2022-12-01)"
   xmlns:inkscape="http://www.inkscape.org/namespaces/inkscape"
   xmlns:sodipodi="http://sodipodi.sourceforge.net/DTD/sodipodi-0.dtd"
   xmlns="http://www.w3.org/2000/svg"
   xmlns:svg="http://www.w3.org/2000/svg">
  <sodipodi:namedview
     id="namedview3499"
     pagecolor="#ffffff"
     bordercolor="#000000"
     borderopacity="0.25"
     inkscape:showpageshadow="2"
     inkscape:pageopacity="0.0"
     inkscape:pagecheckerboard="0"
     inkscape:deskcolor="#ffffff"
     showgrid="false"
     showborder="false"
     inkscape:zoom="32"
     inkscape:cx="7.75"
     inkscape:cy="8.21875"
     inkscape:window-width="2560"
     inkscape:window-height="1355"
     inkscape:window-x="0"
     inkscape:window-y="0"
     inkscape:window-maximized="1"
     inkscape:current-layer="svg3497">
    <inkscape:grid
       type="xygrid"
       id="grid3618" />
    <inkscape:grid
       type="xygrid"
       id="grid3651"
       spacingx="0.5"
       spacingy="0.5"
       empspacing="1"
       empcolor="#0099e5"
       empopacity="0.0745098" />
  </sodipodi:namedview>
  <defs
     id="defs3051">
    <inkscape:path-effect
       effect="fillet_chamfer"
       id="path-effect4744"
       is_visible="true"
       lpeversion="1"
       nodesatellites_param="F,0,1,1,0,5.3333333,0,1 @ F,0,0,1,0,5.3333333,0,1 @ F,0,1,1,0,5.3333333,0,1 @ F,0,1,1,0,5.3333333,0,1 | F,0,0,1,0,3.9999802,0,1 @ F,0,0,1,0,3.9999802,0,1 @ F,0,0,1,0,3.9999802,0,1 @ F,0,0,1,0,3.9999802,0,1"
       unit="px"
       method="auto"
       mode="F"
       radius="0"
       chamfer_steps="1"
       flexible="false"
       use_knot_distance="true"
       apply_no_radius="true"
       apply_with_radius="true"
       only_selected="false"
       hide_knots="false" />
    <inkscape:path-effect
       effect="fillet_chamfer"
       id="path-effect3649"
       is_visible="true"
       lpeversion="1"
       nodesatellites_param="F,0,1,1,0,3.9999998,0,1 @ F,0,1,1,0,3.9999998,0,1 @ F,0,1,1,0,3.9999998,0,1 @ F,0,1,1,0,3.9999998,0,1 | F,0,0,1,0,2.6666802,0,1 @ F,0,0,1,0,2.6666802,0,1 @ F,0,0,1,0,2.6666802,0,1 @ F,0,0,1,0,2.6666802,0,1"
       unit="px"
       method="auto"
       mode="F"
       radius="0"
       chamfer_steps="1"
       flexible="false"
       use_knot_distance="true"
       apply_no_radius="true"
       apply_with_radius="true"
       only_selected="true"
       hide_knots="false" />
    <style
       type="text/css"
       id="current-color-scheme">
      .ColorScheme-Text {
        color:#232629;
      }
      .ColorScheme-NeutralText {
        color:#f67400;
      }
      </style>
  </defs>
  <path
     d="m 1.6666667,1037.3622 v 8.0001 A 5.3333333,5.3333333 45 0 0 7,1050.6956 h 7.999994 a 5.3333333,5.3333333 135 0 0 5.333333,-5.3333 v -8.0001 a 5.3333333,5.3333333 45 0 0 -5.333333,-5.3333 H 7 a 5.3333333,5.3333333 135 0 0 -5.3333333,5.3333 z m 5.3333135,-4 8.0000458,-10e-5 a 3.9999537,3.9999537 44.999832 0 1 3.999979,4 l -4e-6,8.0001 a 3.9999817,3.9999817 135.00001 0 1 -3.999981,4 H 6.9999802 A 3.9999802,3.9999802 45 0 1 3,1045.3622 v -8 a 4.0000052,4.0000052 134.99982 0 1 3.9999802,-4 z"
     style="fill:#786d7d;fill-opacity:1;stroke:none"
     class="ColorScheme-NeutralText"
     id="path3489"
     sodipodi:nodetypes="cccccccccc"
     transform="matrix(0.75,0,0,0.74999813,-0.25,-773.01971)" />
  <path
     d="m 3,1037.3622 v 8 a 3.9999998,3.9999998 45 0 0 3.9999998,4 H 15 a 4.0000013,4.0000013 135.00001 0 0 4.000001,-4 l 4e-6,-8 a 3.9999983,3.9999983 45.000011 0 0 -3.999999,-4 H 6.9999998 A 3.9999998,3.9999998 135 0 0 3,1037.3622 Z m 4.0000136,-2.6666 h 7.9999784 a 2.666679,2.666679 45.000013 0 1 2.666679,2.6667 l -4e-6,7.9999 a 2.6666814,2.6666814 135.00001 0 1 -2.666681,2.6667 H 7.0000077 a 2.666679,2.666679 45.000013 0 1 -2.666679,-2.6667 l 3.5e-6,-7.9999 a 2.6666814,2.6666814 135.00001 0 1 2.6666814,-2.6667 z"
     style="fill:#786d7d;fill-opacity:1;stroke:none;opacity:0.45"
     class="ColorScheme-Text"
     id="path3491"
     sodipodi:nodetypes="cccccccccc"
     transform="matrix(0.75,0,0,0.74999813,-0.25,-773.01971)" />
</svg>
