<svg width="16" height="16" version="1.1" viewBox="0 0 16 16" xml:space="preserve" xmlns="http://www.w3.org/2000/svg"><defs><style id="current-color-scheme" type="text/css">
      .ColorScheme-Text {
        color:#232629;
      }
      </style><style type="text/css">
      .ColorScheme-Text {
        color:#232629;
      }
      </style></defs><path d="m8.5 1.5c-3.86 0-7 3.1399-7 7 0 3.86 3.1399 7 7 7 1.3917 0 2.6887-0.4083 3.7793-1.1113 0.34798-0.2243 0.36907-0.67781 0.07617-0.9707-0.09759-0.09759-0.26448-0.10742-0.37695-0.02734-0.85345 0.60764-1.8724 0.99704-2.9785 1.0879v-0.29424a0.18428 0.18428 45 0 0-0.18428-0.18428h-0.6137a0.20202 0.20202 135 0 0-0.20202 0.20202v0.2765c-0.91271-0.074939-1.7664-0.35322-2.5165-0.78945-0.18428-0.10717-0.50309-0.19887-0.70976-0.24908-0.1762-0.042804-0.34402-0.1158-0.49769-0.2158-0.16462-0.10711-0.39312-0.33561-0.50023-0.50023-0.10148-0.15596-0.17516-0.32649-0.21769-0.50557-0.048114-0.2026-0.13794-0.51461-0.24311-0.69488-0.41247-0.70704-0.68449-1.5064-0.77794-2.3607-0.0098211-0.089783 0.05764-0.16279 0.14797-0.16279h0.16798a0.14699 0.14699 135 0 0 0.14699-0.14699v-0.68939a0.16362 0.16362 45 0 0-0.16362-0.16362h-0.20551c-0.060412 0-0.10548-0.048822-0.099451-0.10893 0.28771-2.8682 2.5854-5.1329 5.4686-5.3696v0.31953a0.15899 0.15899 45 0 0 0.15899 0.15899h0.72214a0.11887 0.11887 135 0 0 0.11887-0.11887v-0.35965c0.90086 0.073965 1.7442 0.34603 2.4872 0.77254 0.20106 0.11541 0.54986 0.20742 0.77104 0.27299 0.14541 0.043104 0.2825 0.10867 0.40528 0.18291 0.19812 0.11979 0.47568 0.38151 0.59428 0.58008 0.09269 0.15519 0.1586 0.32357 0.19463 0.49956 0.03636 0.1776 0.11481 0.44853 0.2076 0.60463 0.45288 0.76189 0.74185 1.633 0.81844 2.5658h-0.2553a0.22322 0.22322 135 0 0-0.22322 0.22322v0.62675a0.15003 0.15003 45 0 0 0.15003 0.15003h0.32653c-0.07653 0.93015-0.36146 1.8002-0.8125 2.5605-0.21119 0.35602-0.18352 0.85748 0.10938 1.1504 0.09759 0.09759 0.24724 0.08896 0.33008-0.02149 0.87674-1.169 1.3965-2.6188 1.3965-4.1894 0-3.86-3.1399-7-7-7zm3.3828 2.9043c-0.11407-0.00727-0.23125 0.00926-0.3418 0.056641l-4.0547 1.9102c-0.50134 0.21486-0.90037 0.61389-1.1152 1.1152l-1.9102 4.0547c-0.12634 0.29479-0.039601 0.63813 0.16016 0.83789 0.19976 0.19976 0.5431 0.2865 0.83789 0.16016l4.0547-1.9102c0.50134-0.21486 0.90037-0.61389 1.1152-1.1152l1.9102-4.0547c0.12634-0.29479 0.0396-0.63813-0.16016-0.83789-0.12485-0.12485-0.30598-0.20467-0.49609-0.2168zm-0.49805 1.2109-1.6738 3.5039c-0.11384 0.26563-0.32617 0.47796-0.5918 0.5918l-3.5039 1.6738 1.6738-3.5039c0.11384-0.26563 0.32617-0.47796 0.5918-0.5918z" fill="#786d7d" style="-inkscape-stroke:none;paint-order:markers stroke fill"/><circle cx="8.5" cy="8.5" r=".5" fill="#786d7d" stroke-linejoin="round"/></svg>
