<svg width="16" height="16" version="1.1" viewBox="0 0 16 16" xmlns="http://www.w3.org/2000/svg">
 <path d="m5 0c-1.0986 0-2 0.90136-2 2v1c0 1.0986 0.90136 2 2 2h6c1.0986 0 2-0.90136 2-2v-1c0-1.0986-0.90136-2-2-2zm0 1h6c0.55821 0 1 0.44179 1 1v1c0 0.55821-0.44179 1-1 1h-6c-0.55821 0-1-0.44179-1-1v-1c0-0.55821 0.44179-1 1-1zm1.25 5c-0.13807 0-0.25 0.11193-0.25 0.25v0.5c0 0.13807 0.11193 0.25 0.25 0.25h1.75v2h-1.75c-0.13807 0-0.25 0.11193-0.25 0.25v0.5c0 0.13807 0.11193 0.25 0.25 0.25h3.5c0.13807 0 0.25-0.11193 0.25-0.25v-0.5c0-0.13807-0.11193-0.25-0.25-0.25h-0.75v-2h0.75c0.13807 0 0.25-0.11193 0.25-0.25v-0.5c0-0.13807-0.11193-0.25-0.25-0.25zm-1.25 5c-1.0986 0-2 0.90136-2 2v1c0 1.0986 0.90136 2 2 2h6c1.0986 0 2-0.90136 2-2v-1c0-1.0986-0.90136-2-2-2zm0 1h6c0.55821 0 1 0.44179 1 1v1c0 0.55821-0.44179 1-1 1h-6c-0.55821 0-1-0.44179-1-1v-1c0-0.55821 0.44179-1 1-1z" color="#000000" fill="#786d7d" stroke-linecap="square" style="-inkscape-stroke:none;paint-order:markers stroke fill"/>
</svg>
