<svg width="16" height="16" version="1.1" viewBox="0 0 16 16" xmlns="http://www.w3.org/2000/svg">
 <g fill="#786d7d">
  <path d="m4 7v1h1v-1h-1zm2 0v1h1v-1h-1zm5 2c-1.0986 0-2 0.90136-2 2v2.75c0 0.13807 0.11193 0.25 0.25 0.25 0.41421 0 0.75-0.33579 0.75-0.75v-2.25c0-0.5582 0.4418-1 1-1h2c0.74004 0 1.3846-0.40252 1.7305-1h-1.7305-2zm-8.834 0.83398a0.16569 0.16569 0 0 0-0.16602 0.16602v4c0 1.0986 0.90136 2 2 2h5.5c2.7775 0 5.0805-2.0732 5.4473-4.752 0.01874-0.13689-0.013897-0.24805-0.29102-0.24805s-0.71337 0.33632-0.82617 0.73438c-0.53494 1.8877-2.2676 3.2656-4.3301 3.2656h-5.5c-0.5582 0-1-0.4418-1-1v-3a0.96569 0.96569 0 0 0-0.2832-0.68359l-0.43359-0.43359a0.16569 0.16569 0 0 0-0.11719-0.048828z" color="#000000" opacity=".6" stroke-linecap="square" style="-inkscape-stroke:none;paint-order:markers stroke fill"/>
  <path d="m4 0c-1.0986 0-2 0.90136-2 2v2.5391a0.23379 0.23379 21.951 0 0 0.40225 0.16212l0.19551-0.20315a1.4393 1.4393 111.95 0 0 0.40225-0.99804v-1.5c0-0.5582 0.4418-1 1-1h9c0.5582 0 1 0.4418 1 1v4h1v-4c0-1.0986-0.90136-2-2-2z" color="#000000" stroke-linecap="square" style="-inkscape-stroke:none;paint-order:markers stroke fill"/>
  <path d="m0.24609 7a0.24606 0.24606 0 0 0-0.24609 0.24609v0.41406a0.33908 0.33908 0 0 0 0.33984 0.33984h3.6602v-1h-3.7539zm4.7539 0v1h1v-1h-1zm2 0v1h8.8633a0.13693 0.13693 0 0 0 0.13672-0.13672v-0.26953a0.5945 0.5945 0 0 0-0.59375-0.59375h-8.4062z" stroke-linejoin="round"/>
  <path d="m5 4.8784v1.6216h1v-1.6216a0.37841 0.37841 45 0 0-0.37841-0.37841h-0.24317a0.37841 0.37841 135 0 0-0.37841 0.37841zm-1.6816 0.26807-0.17188 0.17188a0.37841 0.37841 90 0 0 1e-7 0.53516l0.64648 0.64648h0.70703v-0.70703l-0.64648-0.64648a0.37841 0.37841 1.5671e-6 0 0-0.53516-1e-7zm3.8281 1e-7 -0.64648 0.64648v0.70703h0.70703l0.64648-0.64648a0.37841 0.37841 90 0 0 1e-7 -0.53516l-0.17188-0.17188a0.37841 0.37841 180 0 0-0.53516 1e-7zm-3.3535 3.3535-0.64648 0.64648a0.37841 0.37841 90 0 0-1e-7 0.53516l0.17188 0.17188a0.37841 0.37841 180 0 0 0.53516 0l0.64648-0.64648v-0.70703zm1.207 0v1.6216a0.37841 0.37841 45 0 0 0.37841 0.37841h0.24317a0.37841 0.37841 135 0 0 0.37841-0.37841v-1.6216zm1.5 0v0.70703l0.64648 0.64648a0.37841 0.37841 6.4934e-7 0 0 0.53516 0l0.17188-0.17188a0.37841 0.37841 90 0 0-1e-7 -0.53516l-0.64648-0.64648z" stroke-linejoin="round"/>
 </g>
</svg>
