<?xml version="1.0" encoding="UTF-8" standalone="no"?>
<svg
   version="1.1"
   viewBox="0 0 16 16"
   id="svg11"
   sodipodi:docname="draw-ellipse-arc.svg"
   inkscape:version="1.2.2 (b0a8486541, 2022-12-01)"
   xmlns:inkscape="http://www.inkscape.org/namespaces/inkscape"
   xmlns:sodipodi="http://sodipodi.sourceforge.net/DTD/sodipodi-0.dtd"
   xmlns="http://www.w3.org/2000/svg"
   xmlns:svg="http://www.w3.org/2000/svg">
  <sodipodi:namedview
     id="namedview13"
     pagecolor="#ffffff"
     bordercolor="#000000"
     borderopacity="0.25"
     inkscape:showpageshadow="2"
     inkscape:pageopacity="0.0"
     inkscape:pagecheckerboard="0"
     inkscape:deskcolor="#d1d1d1"
     showgrid="true"
     inkscape:zoom="45.254834"
     inkscape:cx="4.5519999"
     inkscape:cy="9.534893"
     inkscape:window-width="2560"
     inkscape:window-height="1367"
     inkscape:window-x="0"
     inkscape:window-y="0"
     inkscape:window-maximized="1"
     inkscape:current-layer="svg11">
    <inkscape:grid
       type="xygrid"
       id="grid296" />
    <inkscape:grid
       type="xygrid"
       id="grid298"
       spacingx="0.5"
       spacingy="0.5"
       empspacing="1"
       empcolor="#0099e5"
       empopacity="0.0745098" />
  </sodipodi:namedview>
  <defs
     id="defs3">
    <inkscape:path-effect
       effect="fillet_chamfer"
       id="path-effect2115"
       is_visible="true"
       lpeversion="1"
       nodesatellites_param="F,0,0,1,0,0.75,0,1 @ F,0,0,1,0,0,0,1 @ F,0,0,1,0,0,0,1 @ F,0,0,1,0,0,0,1 @ F,0,0,1,0,0,0,1 @ F,0,0,1,0,0,0,1 @ F,0,0,1,0,0.75,0,1 @ F,0,1,1,0,0.25,0,1 @ F,0,0,1,0,0,0,1 @ F,0,0,1,0,0,0,1 @ F,0,0,1,0,0,0,1 @ F,0,0,1,0,0,0,1 @ F,0,0,1,0,0,0,1 @ F,0,1,1,0,0.25,0,1"
       unit="px"
       method="auto"
       mode="F"
       radius="0.25"
       chamfer_steps="1"
       flexible="false"
       use_knot_distance="true"
       apply_no_radius="true"
       apply_with_radius="true"
       only_selected="true"
       hide_knots="false" />
    <style
       type="text/css"
       id="current-color-scheme">.ColorScheme-Text {
        color:#232629;
      }</style>
  </defs>
  <path
     id="path914"
     style="color:#000000;fill:#786d7d;-inkscape-stroke:none;paint-order:markers stroke fill"
     d="M 7.2505879,2.0256828 C 5.3772072,2.1547931 3.686043,2.7642195 2.4003906,3.7070312 0.94535807,4.7740551 0,6.2969794 0,8 0,9.7030206 0.94535807,11.225945 2.4003906,12.292969 3.8554233,13.359993 5.8298559,14 8,14 c 2.170144,0 4.144577,-0.640007 5.599609,-1.707031 1.23875,-0.908417 2.108085,-2.147273 2.339158,-3.5463787 C 16.006182,8.338405 15.664214,8 15.25,8 15.111924,8 15.000905,8.1120862 14.991403,8.2498027 14.906011,9.4874073 14.188249,10.620675 13.007812,11.486328 11.748384,12.409909 9.9719832,13 8,13 6.0280168,13 4.2516155,12.409909 2.9921875,11.486328 1.7327595,10.562748 1,9.3345395 1,8 1,6.6654605 1.7327595,5.4372525 2.9921875,4.5136719 4.1981703,3.6292844 5.8781808,3.0506829 7.7500315,3.0031683 7.8880519,2.9996649 8,2.8880712 8,2.75 8,2.335782 7.6637397,1.997209 7.2505879,2.0256828 Z" />
  <g
     id="rect1120" />
  <g
     id="path1242">
    <path
       id="path1247"
       style="color:#000000;opacity:0.15;fill:#786d7d;-inkscape-stroke:none;paint-order:markers stroke fill"
       d="m 7.9140625,2.921875 c -1.8884594,0 -3.5207951,0.6022873 -4.7949219,1.484375 C 1.845014,5.2883377 1,6.5622032 1,8 1,9.4377968 1.845014,10.711662 3.1191406,11.59375 4.3932674,12.475838 6.1115406,13 8,13 c 1.8884594,0 3.606733,-0.524162 4.880859,-1.40625 1.274127,-0.882088 2.220703,-2.0856407 2.220703,-3.5234375 z"
       sodipodi:nodetypes="cssssscc" />
  </g>
</svg>
