<svg width="16" height="16" version="1.1" viewBox="0 0 16 16" xml:space="preserve" xmlns="http://www.w3.org/2000/svg"><defs><style id="current-color-scheme" type="text/css">
      .ColorScheme-Text {
        color:#232629;
      }
      </style></defs><g fill="#786d7d"><path d="m4 2c-1.099 0-2 0.901-2 2v7c0 1.099 0.901 2 2 2h3.9297c0.038618 0 0.070312-0.031703 0.070312-0.070312v-0.14453c0-0.43403-0.35112-0.78516-0.78516-0.78516h-3.2148c-0.558 0-1-0.442-1-1v-7c0-0.558 0.442-1 1-1h7c0.558 0 1 0.442 1 1v3.3672c0 0.34982 0.283 0.63281 0.63281 0.63281h0.16406c0.11252 0 0.20312-0.090602 0.20312-0.20312v-3.7969c0-1.099-0.902-2-2-2zm8.2207 7.5059c-0.1215 0-0.2207 0.099206-0.2207 0.2207v1.2793c0 1.099 0.901 2 2 2h0.88867c0.33722-5.51e-4 0.61078-0.27411 0.61133-0.61133v-0.07422c0-0.17342-0.14103-0.31445-0.31445-0.31445h-1.1855c-0.558 0-1-0.442-1-1v-1c0-0.27614-0.22386-0.5-0.5-0.5zm-2.4668 2.5c-0.14028 0-0.25391 0.11363-0.25391 0.25391v0.55078c0 0.109 0.087316 0.19531 0.19531 0.19531h1.3047c0.558 0 1 0.442 1 1v1.2109c0 0.16 0.13102 0.28906 0.29102 0.28906h0.33789c0.20513 5.55e-4 0.37165-0.16596 0.37109-0.37109v-1.1289c0-1.099-0.901-2-2-2z" style="-inkscape-stroke:none;paint-order:markers stroke fill"/></g><rect x="7" y="7" width="1" height="1" rx=".51081" ry=".50634" fill="#786d7d" stroke-linejoin="round" stroke-width="1.0016"/></svg>
