<?xml version="1.0" encoding="UTF-8" standalone="no"?>
<svg
   width="16"
   height="16"
   version="1.1"
   xml:space="preserve"
   id="svg6"
   xmlns="http://www.w3.org/2000/svg"
   xmlns:svg="http://www.w3.org/2000/svg"><defs
     id="defs10" /><path
     id="path2"
     style="-inkscape-stroke:none;fill:#786d7d;fill-opacity:1"
     d="M 2.5 2 C 1.1252028 2 0 3.1252028 0 4.5 L 0 11.5 C 0 12.417566 0.50184462 13.221728 1.2441406 13.65625 C 1.3563682 13.721945 1.4457163 13.661266 1.4414062 13.53125 C 1.4360586 13.369931 1.4346402 13.206857 1.4355469 13.042969 C 1.4370074 12.778977 1.2784859 12.414568 1.1601562 12.179688 C 1.0577393 11.976393 1 11.745125 1 11.5 L 1 4.5 C 1 3.6656516 1.6656516 3 2.5 3 L 11.5 3 C 11.790413 3 12.060594 3.0802549 12.289062 3.2207031 C 12.454508 3.3224087 12.721365 3.4345129 12.916016 3.4355469 C 13.079319 3.4364143 13.245714 3.4390855 13.40625 3.4433594 C 13.60504 3.4486517 13.698616 3.3050558 13.589844 3.1386719 C 13.142875 2.4549654 12.37318 2 11.5 2 L 2.5 2 z M 4.5 4 C 3.1252014 4 2 5.1252014 2 6.5 L 2 13.5 C 2 14.874799 3.1252014 16 4.5 16 L 11.291016 16 C 11.394816 16.000243 11.469373 15.900181 11.439453 15.800781 L 11.333984 15.447266 C 11.254184 15.181726 11.009692 14.99995 10.732422 15 L 4.5 15 C 3.6656508 15 3 14.334349 3 13.5 L 3 6.5 C 3 5.6656508 3.6656508 5 4.5 5 L 13.5 5 C 14.334349 5 15 5.6656508 15 6.5 L 15 13.5 C 15 14.334349 14.334349 15 13.5 15 L 12.539062 15 C 12.292073 15.0014 12.132128 15.261302 12.242188 15.482422 L 12.324219 15.648438 C 12.431859 15.863757 12.651858 15.99984 12.892578 16 L 13.5 16 C 14.874799 16 16 14.874799 16 13.5 L 16 6.5 C 16 5.1252014 14.874799 4 13.5 4 L 4.5 4 z M 13.099609 6.6757812 C 12.95503 6.6793412 12.810044 6.7261923 12.683594 6.8164062 C 11.816875 7.4348256 10.272749 8.5413569 9.40625 9.1601562 C 9.1815202 9.3206161 8.8184898 9.3206161 8.59375 9.1601562 C 7.7272109 8.5414769 6.1752929 7.4349056 5.3085938 6.8164062 C 5.1821539 6.7261793 5.036938 6.6813844 4.8925781 6.6777344 C 4.6519884 6.6716444 4.4119086 6.7813277 4.2617188 6.9921875 C 4.1816458 7.1046174 4.2078786 7.2597038 4.3203125 7.3398438 C 5.2453816 7.9992031 6.8551978 9.1478944 7.7792969 9.8085938 C 8.4532162 10.290383 9.5467038 10.290293 10.220703 9.8085938 C 11.144922 9.1480444 12.746976 7.9995431 13.671875 7.3398438 C 13.784285 7.2596688 13.810569 7.1046574 13.730469 6.9921875 C 13.580299 6.7813477 13.340569 6.6698513 13.099609 6.6757812 z M 11.570312 15.904297 A 0.038426 0.038218 0 0 0 11.537109 15.943359 A 0.038426 0.038218 0 0 0 11.576172 15.980469 A 0.038426 0.038218 0 0 0 11.615234 15.943359 A 0.038426 0.038218 0 0 1 11.615234 15.941406 A 0.038426 0.038218 0 0 1 11.613281 15.939453 A 0.038426 0.038218 0 0 1 11.613281 15.9375 A 0.038426 0.038218 0 0 1 11.613281 15.935547 A 0.038426 0.038218 0 0 1 11.613281 15.933594 A 0.038426 0.038218 0 0 1 11.613281 15.931641 A 0.038426 0.038218 0 0 1 11.611328 15.929688 A 0.038426 0.038218 0 0 1 11.611328 15.927734 A 0.038426 0.038218 0 0 1 11.611328 15.925781 A 0.038426 0.038218 0 0 1 11.609375 15.923828 A 0.038426 0.038218 0 0 1 11.607422 15.921875 A 0.038426 0.038218 0 0 1 11.607422 15.919922 A 0.038426 0.038218 0 0 1 11.605469 15.917969 A 0.038426 0.038218 0 0 1 11.603516 15.917969 A 0.038426 0.038218 0 0 1 11.603516 15.916016 A 0.038426 0.038218 0 0 1 11.601562 15.914062 A 0.038426 0.038218 0 0 1 11.599609 15.914062 A 0.038426 0.038218 0 0 1 11.599609 15.912109 A 0.038426 0.038218 0 0 1 11.597656 15.910156 A 0.038426 0.038218 0 0 1 11.595703 15.910156 A 0.038426 0.038218 0 0 1 11.59375 15.908203 A 0.038426 0.038218 0 0 1 11.591797 15.908203 A 0.038426 0.038218 0 0 1 11.589844 15.908203 A 0.038426 0.038218 0 0 1 11.587891 15.90625 A 0.038426 0.038218 0 0 1 11.585938 15.90625 A 0.038426 0.038218 0 0 1 11.583984 15.904297 A 0.038426 0.038218 0 0 1 11.582031 15.904297 A 0.038426 0.038218 0 0 1 11.580078 15.904297 A 0.038426 0.038218 0 0 1 11.578125 15.904297 A 0.038426 0.038218 0 0 1 11.576172 15.904297 A 0.038426 0.038218 0 0 0 11.570312 15.904297 z " /><path
     d="m 7.5508,10.5938 c -0.13532,0.007 -0.26729,0.0422 -0.36719,0.11133 l -3.4629,2.3965 -0.00195,0.002 c -0.1038,0.07355 -0.21392,0.13731 -0.32824,0.19094 -0.061709,0.02895 -0.11317,0.10451 -0.11317,0.17268 v 0.03281 c 0,0.21578 0.053028,0.41655 0.14685,0.59049 0.066848,0.12393 0.25195,0.17143 0.37996,0.11221 0.17175,-0.07946 0.33685,-0.1742 0.49272,-0.28473 l 4.207,-2.9141 c 0.12343,-0.0855 0.10043,-0.164546 -0.046875,-0.193356 -0.17766,-0.03475 -0.35077,-0.08692 -0.51953,-0.15625 -0.11224,-0.04611 -0.25139,-0.06758 -0.38672,-0.06055 z m 2.875,0 c -0.10128,0.0053 -0.20097,0.02596 -0.28516,0.06055 -0.16876,0.06933 -0.34382,0.1215 -0.52148,0.15625 -0.14731,0.02881 -0.16836,0.10786 -0.044922,0.19336 l 4.207,2.9141 c 0.16691,0.11837 0.34414,0.21891 0.5289,0.30192 0.07709,0.03464 0.18526,0.0066 0.22971,-0.0652 0.11638,-0.18804 0.1828,-0.41216 0.1828,-0.6547 v -0.08726 c 0,-0.05752 -0.04267,-0.12302 -0.09409,-0.14878 -0.09319,-0.04669 -0.18359,-0.09976 -0.2692,-0.16044 l -0.002,-0.002 -3.4628,-2.3964 c -0.12487,-0.08641 -0.29995,-0.1202 -0.46875,-0.11133 z"
     color="#000000"
     fill="#786d7d"
     opacity="0.2"
     style="-inkscape-stroke:none"
     id="path4" /><path
     id="path701"
     style="fill:#786d7d;fill-opacity:1;-inkscape-stroke:none;opacity:0.5"
     d="M 2.5 0 C 2.4854654 0 2.471509 0.0017026312 2.4570312 0.001953125 C 2.4109368 0.002750651 2.365787 0.0064728029 2.3203125 0.009765625 C 2.2798698 0.013043155 2.2391031 0.016277943 2.1992188 0.021484375 C 1.4606596 0.11789467 0.82078537 0.54042874 0.4296875 1.1386719 C 0.32091498 1.3050558 0.41644432 1.4486518 0.61523438 1.4433594 C 0.77577026 1.4390855 0.94021266 1.4364143 1.1035156 1.4355469 C 1.2604119 1.4347134 1.4629322 1.360576 1.6230469 1.2792969 C 1.8689593 1.1031466 2.1713897 1 2.5 1 L 2.5214844 1 L 11.5 1 L 11.521484 1 C 11.847544 1 12.145753 1.1017327 12.390625 1.2753906 C 12.551891 1.3583367 12.756463 1.4346994 12.916016 1.4355469 C 13.079319 1.4364143 13.245714 1.4390855 13.40625 1.4433594 C 13.60504 1.4486517 13.698616 1.3050558 13.589844 1.1386719 C 13.198746 0.54042873 12.560825 0.11789467 11.822266 0.021484375 C 11.782381 0.016277943 11.741615 0.013043155 11.701172 0.009765625 C 11.655697 0.0064728029 11.610548 0.002750651 11.564453 0.001953125 C 11.55007 0.0015808943 11.535926 0.00012445459 11.521484 0 L 11.5 0 L 2.5 0 z " /></svg>
