<svg version="1.1" viewBox="0 0 16 16" xml:space="preserve" xmlns="http://www.w3.org/2000/svg"><defs><style id="current-color-scheme" type="text/css">
      .ColorScheme-Text {
        color:#232629;
      }
      </style></defs><path d="m1.6953 0.99805c-0.031206 0.004851-0.054418 0.033037-0.054687 0.066406-3.462e-4 0.037839 0.028688 0.068633 0.064453 0.068359 0.035765 2.739e-4 0.064799-0.03052 0.064453-0.068359-4.227e-4 -0.0033-0.00108-0.00657-0.00195-0.00977-4.23e-4 -0.0033-0.00108-0.00657-0.00195-0.00977-5.659e-4 -0.00198-0.00122-0.00394-0.00195-0.00586-5.659e-4 -0.00198-0.00122-0.00394-0.00195-0.00586-0.0012-0.00202-0.00251-0.00398-0.00391-0.00586-0.0012-0.00202-0.00251-0.00398-0.00391-0.00586l-0.00586-0.00586c-0.00189-0.00141-0.00384-0.00272-0.00586-0.00391l-0.00195-0.00195c-0.00189-0.00141-0.00384-0.00272-0.00586-0.00391-0.00189-0.00141-0.00384-0.00272-0.00586-0.00391-0.00192-7.499e-4 -0.00388-0.0014-0.00586-0.00195-0.00192-7.4995e-4 -0.00388-0.001402-0.00586-0.001953-0.00325-2.6318e-4 -0.00652-2.6318e-4 -0.00977 0h-0.00195c-0.00325-2.6317e-4 -0.00653-2.6337e-4 -0.00977 0zm1.8047 0.0019531c-0.8225 0-1.5 0.6775-1.5 1.5v10.598c4.92e-5 0.05607 0.045494 0.10151 0.10156 0.10156h0.10938c0.43572-1.57e-4 0.78891-0.35334 0.78906-0.78906v-9.9102c0-0.28206 0.21794-0.5 0.5-0.5h10c0.28206 0 0.5 0.21794 0.5 0.5v4.0918c7.3e-5 0.32506 0.19697 0.6177 0.49805 0.74023l0.0039 0.00195c0.23756 0.097621 0.49818-0.077142 0.49805-0.33398v-4.5c0-0.8225-0.6775-1.5-1.5-1.5zm-2.3945 0.064453c-0.031132 0.00186-0.063288 0.00816-0.095703 0.019531-0.58491 0.20524-1.0098 0.76496-1.0098 1.416v11c0 0.8225 0.6775 1.5 1.5 1.5h2.3203c0.21564 0.0012 0.33467-0.24982 0.19727-0.41602l-0.14062-0.16797c-0.21532-0.26294-0.5371-0.41559-0.87695-0.41602h-1.5c-0.28206 0-0.5-0.21794-0.5-0.5v-11c0-0.25088 0.1716-0.451 0.4082-0.49219 0.049685-0.00865 0.091797-0.049097 0.091797-0.099609v-0.4082c0-0.24162-0.17661-0.44854-0.39453-0.43555zm9 5.3906c-0.06398 0-0.12892 0.025403-0.17773 0.074219l-0.35352 0.35352c-0.09763 0.097631-0.09763 0.25588 0 0.35352l0.72656 0.76367h-3.3008c-1.0716 1.5e-4 -2.0618 0.57193-2.5977 1.5-0.5359 0.9282-0.5359 2.0718 0 3 0.51716 0.89574 1.4576 1.4596 2.486 1.4979 0.061647 0.002298 0.11168-0.047926 0.11168-0.10962v-0.30058c0-0.32458-0.26975-0.57965-0.57931-0.6733-0.47982-0.14515-0.89533-0.46793-1.1531-0.91442-0.35727-0.6188-0.35727-1.3812 0-2 0.35733-0.61892 1.0178-1.0001 1.7324-1h3.3008l-0.72656 0.71094c-0.09862 0.09663-0.09763 0.25588 0 0.35352l0.35352 0.35352c0.09763 0.09763 0.25588 0.09763 0.35352 0l1.666-1.666c0.1538-0.15381 0.1538-0.40479 0-0.55859l-1.666-1.6641c-0.04881-0.048815-0.1118-0.074219-0.17578-0.074219zm2.8945 2.0404v0.35645c0 0.081794 0.06641 0.14752 0.14797 0.15354 0.65693 0.048503 1.2519 0.41861 1.5845 0.99456 0.35727 0.6188 0.35727 1.3812 0 2-0.35733 0.61892-1.0178 1.0001-1.7324 1h-3.1992l0.72461-0.76367c0.09763-0.09763 0.09763-0.25589 0-0.35352l-0.35352-0.35352c-0.09763-0.09763-0.25589-0.09763-0.35352 0l-1.666 1.6641c-0.15381 0.15381-0.1538 0.40479 0 0.55859l1.666 1.666c0.097631 0.09763 0.25589 0.09763 0.35352 0l0.35352-0.35352c0.09763-0.09763 0.09862-0.25689 0-0.35352l-0.72461-0.71094h3.1992c1.0716-1.5e-4 2.0618-0.57193 2.5977-1.5 0.5359-0.9282 0.5359-2.0718 0-3-0.4524-0.78358-1.2287-1.3132-2.1045-1.4592-0.2696-0.044945-0.4932 0.181-0.4932 0.45462z" color="#000000" fill="#786d7d" style="-inkscape-stroke:none;paint-order:markers stroke fill"/></svg>
