<?xml version="1.0" encoding="UTF-8" standalone="no"?>
<svg
   width="16"
   height="16"
   version="1.1"
   xml:space="preserve"
   id="svg30908"
   sodipodi:docname="petunias.svg"
   inkscape:version="1.2.2 (b0a8486541, 2022-12-01)"
   xmlns:inkscape="http://www.inkscape.org/namespaces/inkscape"
   xmlns:sodipodi="http://sodipodi.sourceforge.net/DTD/sodipodi-0.dtd"
   xmlns="http://www.w3.org/2000/svg"
   xmlns:svg="http://www.w3.org/2000/svg"><defs
     id="defs30912"><inkscape:path-effect
       effect="fillet_chamfer"
       id="path-effect26038"
       is_visible="true"
       lpeversion="1"
       nodesatellites_param="F,0,0,1,0,0,0,1 @ F,0,0,1,0,0,0,1 @ F,0,0,1,0,0,0,1 @ F,0,0,1,0,0,0,1 @ F,0,0,1,0,0,0,1 @ F,0,0,1,0,0,0,1 @ F,0,0,1,0,0,0,1 @ F,0,0,1,0,0,0,1 @ F,0,0,1,0,0,0,1 @ F,0,0,1,0,0,0,1 @ F,0,0,1,0,0.4960938,0,1 @ F,0,0,1,0,0.515625,0,1 @ F,0,0,1,0,0,0,1 @ F,0,0,1,0,0,0,1 @ F,0,0,1,0,0,0,1 @ F,0,0,1,0,0,0,1 @ F,0,0,1,0,0,0,1 @ F,0,0,1,0,0,0,1 @ F,0,0,1,0,0,0,1 @ F,0,0,1,0,0,0,1 @ F,0,0,1,0,0,0,1 @ F,0,0,1,0,0,0,1 @ F,0,0,1,0,0,0,1 @ F,0,0,1,0,0,0,1 @ F,0,0,1,0,0,0,1 @ F,0,0,1,0,0,0,1 @ F,0,0,1,0,0,0,1 @ F,0,0,1,0,0,0,1 @ F,0,0,1,0,0,0,1 @ F,0,0,1,0,0,0,1 @ F,0,0,1,0,0,0,1 @ F,0,0,1,0,0,0,1 @ F,0,0,1,0,0,0,1 @ F,0,0,1,0,0,0,1 @ F,0,0,1,0,0.38746218,0,1 @ F,0,0,1,0,0,0,1 @ F,0,0,1,0,0,0,1 @ F,0,0,1,0,0,0,1 @ F,0,0,1,0,0,0,1 @ F,0,0,1,0,0,0,1 @ F,0,0,1,0,0,0,1 @ F,0,0,1,0,0,0,1 @ F,0,0,1,0,0,0,1 @ F,0,0,1,0,0,0,1 @ F,0,0,1,0,0,0,1 @ F,0,0,1,0,0,0,1 @ F,0,0,1,0,0,0,1 @ F,0,0,1,0,0,0,1 @ F,0,0,1,0,0,0,1 @ F,0,0,1,0,0,0,1 @ F,0,0,1,0,0,0,1 @ F,0,0,1,0,0,0,1 @ F,0,0,1,0,0,0,1 @ F,0,0,1,0,0,0,1 @ F,0,0,1,0,0,0,1 @ F,0,0,1,0,0,0,1 @ F,0,0,1,0,0,0,1 @ F,0,0,1,0,0,0,1 @ F,0,0,1,0,0,0,1 @ F,0,0,1,0,0,0,1 @ F,0,0,1,0,0,0,1 @ F,0,0,1,0,0,0,1 @ F,0,0,1,0,0,0,1 @ F,0,0,1,0,0,0,1 @ F,0,0,1,0,0,0,1 @ F,0,0,1,0,0.5019531,0,1 @ F,0,0,1,0,0,0,1 @ F,0,0,1,0,0,0,1 @ F,0,0,1,0,0,0,1 @ F,0,0,1,0,0,0,1 @ F,0,0,1,0,0,0,1 @ F,0,0,1,0,0,0,1 @ F,0,0,1,0,0,0,1 @ F,0,0,1,0,0,0,1 @ F,0,0,1,0,0,0,1 @ F,0,0,1,0,0,0,1 @ F,0,0,1,0,0,0,1 @ F,0,0,1,0,0,0,1 @ F,0,0,1,0,0,0,1 @ F,0,0,1,0,0,0,1 @ F,0,0,1,0,0,0,1 @ F,0,0,1,0,0,0,1 | F,0,0,1,0,0,0,1 @ F,0,0,1,0,0,0,1 @ F,0,0,1,0,0,0,1 @ F,0,0,1,0,0,0,1 @ F,0,0,1,0,0,0,1 @ F,0,0,1,0,0.092551978,0,1 @ F,0,0,1,0,0,0,1 @ F,0,1,1,0,0.10078123,0,1 @ F,0,0,1,0,0,0,1 @ F,0,0,1,0,0.045248676,0,1 | F,0,0,1,0,0,0,1 @ F,0,0,1,0,0,0,1 @ F,0,1,1,0,0.10078123,0,1 @ F,0,0,1,0,0,0,1 @ F,0,0,1,0,0,0,1 @ F,0,0,1,0,0,0,1 @ F,0,0,1,0,0,0,1 @ F,0,0,1,0,0,0,1 @ F,0,0,1,0,0.10078123,0,1 | F,0,0,1,0,0,0,1 @ F,0,0,1,0,0,0,1 @ F,0,0,1,0,0,0,1 @ F,0,0,1,0,0,0,1 @ F,0,0,1,0,0,0,1 @ F,0,0,1,0,0.079434632,0,1 @ F,0,0,1,0,0.11742418,0,1 @ F,0,0,1,0,0,0,1 @ F,0,0,1,0,0,0,1 @ F,0,0,1,0,0,0,1 @ F,0,0,1,0,0,0,1 @ F,0,0,1,0,0,0,1 @ F,0,0,1,0,0.12936344,0,1 @ F,0,0,1,0,0,0,1 @ F,0,0,1,0,0.080292768,0,1 @ F,0,0,1,0,0.14968208,0,1 @ F,0,0,1,0,0.28299776,0,1 @ F,0,0,1,0,0,0,1 @ F,0,0,1,0,0,0,1 | F,0,0,1,0,0,0,1 @ F,0,0,1,0,0,0,1 @ F,0,0,1,0,0.11929505,0,1 @ F,0,0,1,0,0.11929505,0,1 @ F,0,0,1,0,0.11929505,0,1 @ F,0,0,1,0,0,0,1 @ F,0,0,1,0,0,0,1 @ F,0,0,1,0,0,0,1 @ F,0,0,1,0,0,0,1 @ F,0,0,1,0,0,0,1 @ F,0,0,1,0,0,0,1 @ F,0,0,1,0,0,0,1 @ F,0,0,1,0,0.1196105,0,1 @ F,0,0,1,0,0,0,1 @ F,0,0,1,0,0.10606277,0,1 @ F,0,0,1,0,0,0,1 @ F,0,0,1,0,0.072892765,0,1 @ F,0,0,1,0,0,0,1 @ F,0,0,1,0,0,0,1 @ F,0,0,1,0,0,0,1 | F,0,0,1,0,0.083864879,0,1 @ F,0,0,1,0,0,0,1 @ F,0,0,1,0,0,0,1 @ F,0,0,1,0,0,0,1 @ F,0,0,1,0,0,0,1 @ F,0,0,1,0,0.15060251,0,1 @ F,0,1,1,0,0.10078123,0,1 | F,0,1,1,0,0.10078123,0,1 @ F,0,0,1,0,0.13467914,0,1 @ F,0,0,1,0,0,0,1 @ F,0,0,1,0,0,0,1 @ F,0,0,1,0,0,0,1 @ F,0,0,1,0,0,0,1 @ F,0,0,1,0,0,0,1"
       unit="px"
       method="auto"
       mode="F"
       radius="0"
       chamfer_steps="1"
       flexible="false"
       use_knot_distance="true"
       apply_no_radius="true"
       apply_with_radius="true"
       only_selected="false"
       hide_knots="false" /><inkscape:path-effect
       effect="fillet_chamfer"
       id="path-effect24726"
       is_visible="true"
       lpeversion="1"
       nodesatellites_param="F,0,0,1,0,0,0,1 @ F,0,0,1,0,0,0,1 @ F,0,0,1,0,0,0,1 @ F,0,0,1,0,0,0,1 @ F,0,0,1,0,0,0,1 @ F,0,0,1,0,0,0,1 @ F,0,0,1,0,0,0,1 @ F,0,0,1,0,0,0,1 @ F,0,0,1,0,0,0,1 @ F,0,0,1,0,0.50424294,0,1 @ F,0,0,1,0,0.32367974,0,1 @ F,0,0,1,0,0,0,1 @ F,0,0,1,0,0,0,1 @ F,0,0,1,0,0,0,1 @ F,0,0,1,0,0,0,1 @ F,0,0,1,0,0,0,1 @ F,0,0,1,0,0,0,1 @ F,0,0,1,0,0.088084572,0,1 @ F,0,0,1,0,0.12332551,0,1 @ F,0,0,1,0,0.045870781,0,1 @ F,0,0,1,0,0.7758786,0,1 @ F,0,0,1,0,0.16992424,0,1 @ F,0,0,1,0,0,0,1 @ F,0,0,1,0,0,0,1"
       unit="px"
       method="auto"
       mode="F"
       radius="0"
       chamfer_steps="1"
       flexible="false"
       use_knot_distance="true"
       apply_no_radius="true"
       apply_with_radius="true"
       only_selected="false"
       hide_knots="false" /><inkscape:path-effect
       effect="fillet_chamfer"
       id="path-effect24720"
       is_visible="true"
       lpeversion="1"
       nodesatellites_param="F,0,0,1,0,0,0,1 @ F,0,1,1,0,1.0802383,0,1 @ F,0,1,1,0,1.0802383,0,1 @ F,0,0,1,0,0.38654958,0,1 @ F,0,0,1,0,0.38654958,0,1 @ F,0,0,1,0,0.38654958,0,1 @ F,0,0,1,0,0.38654958,0,1 @ F,0,0,1,0,0,0,1"
       unit="px"
       method="auto"
       mode="F"
       radius="0"
       chamfer_steps="1"
       flexible="false"
       use_knot_distance="true"
       apply_no_radius="true"
       apply_with_radius="true"
       only_selected="false"
       hide_knots="false" /><inkscape:path-effect
       effect="spiro"
       id="path-effect24714"
       is_visible="true"
       lpeversion="1" /><inkscape:path-effect
       effect="fillet_chamfer"
       id="path-effect24676"
       is_visible="true"
       lpeversion="1"
       nodesatellites_param="F,0,0,1,0,0,0,1 @ F,0,0,1,0,0,0,1 @ F,0,0,1,0,0.29629898,0,1 @ F,0,0,1,0,0.27605914,0,1 @ F,0,0,1,0,0,0,1 @ F,0,0,1,0,0,0,1 @ F,0,0,1,0,0,0,1 @ F,0,0,1,0,0,0,1 @ F,0,0,1,0,0,0,1 @ F,0,0,1,0,0,0,1 @ F,0,0,1,0,0,0,1 @ F,0,0,1,0,0,0,1 @ F,0,0,1,0,0,0,1 @ F,0,0,1,0,0,0,1 @ F,0,0,1,0,0,0,1 @ F,0,0,1,0,0,0,1 @ F,0,0,1,0,0,0,1 @ F,0,0,1,0,0,0,1 @ F,0,0,1,0,0,0,1 @ F,0,0,1,0,0,0,1 @ F,0,0,1,0,0,0,1 @ F,0,0,1,0,0,0,1 | F,0,0,1,0,0,0,1 @ F,0,0,1,0,0,0,1 @ F,0,0,1,0,0,0,1 @ F,0,0,1,0,0,0,1 @ F,0,0,1,0,0,0,1 @ F,0,0,1,0,0,0,1 @ F,0,0,1,0,0,0,1 @ F,0,0,1,0,0,0,1 @ F,0,0,1,0,0,0,1 @ F,0,0,1,0,0,0,1 @ F,0,0,1,0,0,0,1 @ F,0,0,1,0,0,0,1 @ F,0,0,1,0,0,0,1 | F,0,0,1,0,0,0,1 @ F,0,0,1,0,0,0,1 @ F,0,0,1,0,0,0,1 @ F,0,0,1,0,0,0,1 @ F,0,0,1,0,0,0,1 @ F,0,0,1,0,0,0,1 @ F,0,0,1,0,0,0,1 @ F,0,0,1,0,0,0,1 @ F,0,0,1,0,0,0,1 @ F,0,0,1,0,0,0,1 @ F,0,0,1,0,0,0,1 @ F,0,0,1,0,0,0,1 @ F,0,0,1,0,0,0,1 @ F,0,0,1,0,0,0,1 @ F,0,0,1,0,0,0,1 @ F,0,0,1,0,0,0,1 @ F,0,0,1,0,0,0,1 @ F,0,0,1,0,0,0,1 @ F,0,0,1,0,0.51698214,0,1 @ F,0,0,1,0,0.44238192,0,1 @ F,0,0,1,0,0,0,1 @ F,0,0,1,0,0,0,1 @ F,0,0,1,0,0,0,1 @ F,0,0,1,0,0,0,1 @ F,0,0,1,0,0,0,1 @ F,0,0,1,0,0,0,1 @ F,0,0,1,0,0,0,1 @ F,0,0,1,0,0,0,1"
       unit="px"
       method="auto"
       mode="F"
       radius="0"
       chamfer_steps="1"
       flexible="false"
       use_knot_distance="true"
       apply_no_radius="true"
       apply_with_radius="true"
       only_selected="false"
       hide_knots="false" /><inkscape:path-effect
       effect="fillet_chamfer"
       id="path-effect24297"
       is_visible="true"
       lpeversion="1"
       nodesatellites_param="F,0,0,1,0,1.5,0,1 @ F,0,0,1,0,1.5,0,1 @ F,0,0,1,0,0,0,1 @ F,0,0,1,0,0,0,1 @ F,0,0,1,0,0,0,1 @ F,0,0,1,0,0,0,1 @ F,0,0,1,0,0.15315151,0,1 @ F,0,0,1,0,0,0,1 @ F,0,0,1,0,0,0,1 @ F,0,0,1,0,0,0,1 @ F,0,0,1,0,0.22359058,0,1 @ F,0,0,1,0,0.72852055,0,1 @ F,0,0,1,0,0,0,1 @ F,0,0,1,0,0,0,1 @ F,0,0,1,0,0,0,1 @ F,0,0,1,0,0,0,1 @ F,0,0,1,0,0,0,1 @ F,0,0,1,0,0,0,1 @ F,0,0,1,0,0,0,1 @ F,0,0,1,0,0,0,1 @ F,0,0,1,0,0.5,0,1 @ F,0,0,1,0,0.5,0,1 @ F,0,0,1,0,0.15315151,0,1 @ F,0,0,1,0,0,0,1 @ F,0,0,1,0,0,0,1 @ F,0,0,1,0,0,0,1 @ F,0,0,1,0,0,0,1 @ F,0,0,1,0,0.20287819,0,1 @ F,0,0,1,0,0.72852055,0,1 @ F,0,0,1,0,0,0,1 @ F,0,0,1,0,0,0,1 @ F,0,0,1,0,0,0,1 @ F,0,0,1,0,0,0,1 @ F,0,0,1,0,0.15315151,0,1"
       unit="px"
       method="auto"
       mode="F"
       radius="0"
       chamfer_steps="1"
       flexible="false"
       use_knot_distance="true"
       apply_no_radius="true"
       apply_with_radius="true"
       only_selected="false"
       hide_knots="false" /><inkscape:path-effect
       effect="fillet_chamfer"
       id="path-effect24291"
       is_visible="true"
       lpeversion="1"
       nodesatellites_param="F,0,0,1,0,2,0,1 @ F,0,0,1,0,2,0,1 @ F,0,0,1,0,1,0,1 @ F,0,0,1,0,0.70278193,0,1 @ F,0,0,1,0,1.5,0,1 @ F,0,0,1,0,3.5,0,1 @ F,0,0,1,0,2,0,1 @ F,0,0,1,0,2,0,1"
       unit="px"
       method="auto"
       mode="F"
       radius="0"
       chamfer_steps="1"
       flexible="false"
       use_knot_distance="true"
       apply_no_radius="true"
       apply_with_radius="true"
       only_selected="false"
       hide_knots="false" /></defs><sodipodi:namedview
     id="namedview30910"
     pagecolor="#ffffff"
     bordercolor="#666666"
     borderopacity="1.0"
     inkscape:showpageshadow="2"
     inkscape:pageopacity="0.0"
     inkscape:pagecheckerboard="0"
     inkscape:deskcolor="#d1d1d1"
     showgrid="true"
     inkscape:zoom="29.698517"
     inkscape:cx="-5.0170855"
     inkscape:cy="5.673684"
     inkscape:window-width="2930"
     inkscape:window-height="1386"
     inkscape:window-x="2842"
     inkscape:window-y="467"
     inkscape:window-maximized="0"
     inkscape:current-layer="svg30908"><inkscape:grid
       type="xygrid"
       id="grid23906"
       spacingx="0.5"
       spacingy="0.5"
       empspacing="2" /></sodipodi:namedview><g
     fill="#786d7d"
     id="g23914"
     transform="translate(-10.934645,1.268858)" /><path
     id="path24718"
     style="color:#000000;fill:#786d7d;fill-opacity:1;-inkscape-stroke:none"
     d="m 13.25,0.4277344 c -0.03159,2.499e-4 -0.06419,0.00192 -0.0957,0.00586 -0.311506,0.03894 -0.537525,0.2242785 -0.683594,0.4628907 -0.226575,-0.1629883 -0.508244,-0.2451255 -0.810547,-0.1601563 -0.244631,0.068759 -0.448637,0.2508277 -0.574218,0.46875 -0.116718,0.202538 -0.1734,0.4458633 -0.203126,0.7207031 -0.11636,0.1511268 -0.260756,0.2765478 -0.28125,0.5019532 -0.02621,0.2882749 0.064,0.5732519 0.238282,0.859375 -0.01591,0.1177124 -0.02078,0.2306648 -0.01758,0.3398437 -0.76806,0.3955819 -1.2237485,1.1713616 -1.4746108,1.96289 C 9.1457423,6.2269287 9.0546415,6.9012653 9.016779,7.5053052 8.9996721,7.7782207 8.773985,8 8.5,8 h -2 C 6.2152282,8 5.9790049,7.7690553 5.9574856,7.4851238 5.9276412,7.0913478 5.8738263,6.6655753 5.7851562,6.2421875 5.7465055,6.057635 5.7031441,5.8727344 5.6503906,5.6914062 5.9015064,5.5497846 6.0588312,5.350521 6.1757812,5.1855469 6.2782712,5.0782326 6.3580019,4.9468016 6.4042969,4.8125 6.4768226,4.6021026 6.4914572,4.3641094 6.4882812,4.0898438 6.6100822,3.8954481 6.7529696,3.7084041 6.7460938,3.4316406 6.738617,3.1306845 6.5090584,2.8723342 6.2734375,2.6269531 6.2884802,2.3113513 6.309834,1.9851695 6.109375,1.7695312 5.9055034,1.550222 5.6552914,1.473044 5.4238281,1.4453125 5.0047996,1.0808891 4.4810161,0.9632825 4.0605469,1.1328125 3.7505427,1.2578194 3.5227114,1.5042046 3.4023438,1.8007812 3.1173397,1.6563869 2.784087,1.6194937 2.46875,1.7285156 2.040246,1.8766477 1.7215684,2.3095296 1.6445312,2.859375 1.4878627,3.0324363 1.3493096,3.254921 1.3398438,3.5546875 1.3305031,3.8504936 1.5625418,4.0836816 1.7832031,4.3125 c -0.015499,0.3379627 -0.019409,0.6814416 0.171875,0.9121094 0.1765928,0.2129515 0.4075848,0.2615528 0.6269531,0.328125 0.1771604,0.2082033 0.3447554,0.379404 0.5371094,0.4902344 0.1298266,0.074803 0.2839417,0.124944 0.4394532,0.1347656 0.2029737,0.047973 0.4578313,0.086597 0.7421874,0.021484 0.1364409,-0.031242 0.2649063,-0.114119 0.3886719,-0.2148434 0.044863,0.1485639 0.08392,0.3040442 0.1171875,0.4628906 0.081227,0.3878494 0.129839,0.7929543 0.1559288,1.1659198 C 4.9774966,7.8265769 4.8089492,8 4.5949597,8 H 2.8867188 C 2.4030142,8 2,8.4030142 2,8.8867188 V 10.113281 C 2,10.596986 2.4030142,11 2.8867188,11 H 12.761719 L 11.4375,13.310547 C 11.213996,13.700523 10.869406,14 10.419922,14 H 5.5800781 C 5.1530173,14 4.7791343,13.725553 4.6503906,13.318359 L 3.9257812,11.865234 C 3.787883,11.589363 3.5056811,11.415352 3.1972656,11.416016 H 2.9726562 c -0.1507764,-3.1e-4 -0.2502744,0.156792 -0.1855468,0.292968 l 0.9101562,1.91211 C 3.9562646,14.440295 4.7209422,15 5.5800781,15 h 4.8398439 c 0.855366,0 1.627638,-0.522219 1.945312,-1.316406 l 1.455078,-2.638672 C 14.014106,10.560435 13.63509,9.999999 13.113281,10 H 3.0878906 C 3.0393941,9.999893 3.0001065,9.960606 3,9.912109 V 9.123047 C 3.0001532,9.055154 3.0551535,9.000153 3.1230469,9 h 9.8320311 c 0.0246,5.04e-4 0.04442,0.02032 0.04492,0.04492 0.0053,0.422895 0.352499,0.761375 0.775391,0.755859 h 0.05469 c 0.09384,0 0.169918,-0.07608 0.169919,-0.169922 V 8.8867188 C 13.999998,8.4030139 13.596987,7.9999995 13.113281,8 H 10.5 c -0.277221,0 -0.497358,-0.2248269 -0.477624,-0.5013218 0.038,-0.5323523 0.119661,-1.1052251 0.278405,-1.6061001 0.200332,-0.6320907 0.48964,-1.1104211 0.933594,-1.3554687 0.06221,0.048288 0.12637,0.09337 0.189453,0.1386718 0.127886,0.2637763 0.24537,0.4718977 0.392578,0.6328126 0.156744,0.1713383 0.409373,0.3296819 0.69336,0.2949218 0.283985,-0.03476 0.447767,-0.2090942 0.552734,-0.3457031 0.09267,-0.120601 0.15725,-0.2417212 0.216797,-0.359375 0.100475,0.084957 0.205741,0.1709076 0.337891,0.2460937 0.149738,0.085194 0.367344,0.1835922 0.642578,0.1054688 0.275232,-0.078124 0.447384,-0.3222915 0.52539,-0.5410156 0.07431,-0.2083634 0.103851,-0.4472385 0.119141,-0.7460938 0.108723,-0.1800292 0.236138,-0.3514561 0.248047,-0.5996094 0.01407,-0.2933634 -0.07509,-0.5956789 -0.253906,-0.8984374 0.04937,-0.330582 0.0225,-0.6257199 -0.113282,-0.8808594 C 14.67919,1.3848619 14.497305,1.3246002 14.332031,1.2304688 14.197849,0.9880882 14.051701,0.7861787 13.865234,0.6445312 13.689986,0.5114053 13.471137,0.4259851 13.25,0.4277344 Z m 0.03711,1.0449218 c 0.04535,0.040319 0.114822,0.1148507 0.195313,0.2675782 l 0.09375,0.1796875 0.193359,0.0625 c 0.116902,0.038044 0.124644,0.054963 0.132813,0.070312 0.0012,0.00225 -8.95e-4,0.022746 -0.0033,0.047721 -0.0049,0.050055 -0.04422,0.1026835 -0.09324,0.117157 l -0.116314,0.03434 -0.278525,0.084138 c -0.05328,0.016096 -0.104422,-0.015276 -0.113307,-0.070221 -0.0422,-0.2609418 -0.06031,-0.4850079 -0.02028,-0.7189945 0.0019,-0.011295 0.0035,-0.020969 0.0048,-0.029287 0.0038,-0.024676 0.005,-0.044932 0.005,-0.044932 z M 11.9375,1.7441406 c 0.004,0.00939 0.01377,0.026755 0.03906,0.066406 0.127566,0.1999917 0.19789,0.4131881 0.260221,0.6697655 0.0131,0.053923 -0.02187,0.1026973 -0.07721,0.1086545 -0.167752,0.018058 -0.335549,0.035697 -0.503316,0.053615 -0.0092,-0.031385 -0.05912,-0.1191038 -0.05859,-0.125 0.0016,-0.017318 0.0027,-0.034822 0.0957,-0.1152343 l 0.152344,-0.1328126 0.01758,-0.203125 c 0.0086,-0.099155 0.02331,-0.1729039 0.03921,-0.2280748 0.01536,-0.053329 0.03501,-0.094192 0.03501,-0.094194 z M 4.4863281,2.0449219 c 0.063471,-0.00852 0.165437,0.019299 0.3515625,0.2226562 l 0.1425782,0.15625 0.2089843,0.00586 c 0.1074327,0.00347 0.1609075,0.019681 0.1816407,0.025391 0.00278,0.020008 0.00557,0.066223 -0.011007,0.1682374 -0.00701,0.043161 -0.021359,0.1127299 -0.029962,0.1557485 l -0.02194,0.1096983 a 0.19165696,0.19165696 69.815034 0 0 0.069097,0.1879533 l 0.1500614,0.1185969 c 0.2204473,0.1731547 0.2181561,0.237812 0.21875,0.2617187 5.939e-4,0.023907 -0.024674,0.1161505 -0.1425782,0.265625 l -0.1132808,0.1425772 0.00586,0.1816406 c 0.00332,0.1132916 -0.00158,0.1977939 -0.00942,0.2618565 -0.00865,0.070732 -0.074192,0.1014641 -0.1399452,0.080019 -0.03818,-0.012452 -0.08681,-0.02975 -0.1475143,-0.054766 C 5.0566348,4.2752266 4.9365585,4.1317347 4.7950632,3.9133993 4.7709573,3.8762024 4.7846472,3.8307572 4.8249773,3.8123206 l 0.064281,-0.029386 C 4.9644422,3.7485652 5.0723479,3.6723966 5.1207278,3.6054257 5.4315895,3.1751084 5.0018107,3.0207927 4.685448,2.9536472 4.5329279,2.921276 4.3643807,2.7808938 4.330561,2.6283603 4.3028027,2.5031649 4.291611,2.3827657 4.3085938,2.2519531 c 0.013419,-0.1033854 0.074933,-0.1712172 0.125,-0.1914062 0.014092,-0.00568 0.031577,-0.012786 0.052734,-0.015625 z M 2.8398438,2.6660156 c 0.05096,-0.00111 0.1172836,0.018428 0.1757812,0.070312 0.1399147,0.1241193 0.2235644,0.2683782 0.3040281,0.445916 0.027063,0.059712 0.00161,0.1364168 -0.050299,0.1769566 -0.2173842,0.1697865 -0.2647412,0.3710544 -0.095465,0.910306 0.019718,0.062815 0.088248,0.0981 0.1514067,0.079343 l 0.2908149,-0.08637 c 0.063158,-0.018758 0.1229535,0.018763 0.1315589,0.084082 0.031338,0.2378681 0.030727,0.4130953 -0.034779,0.5440642 C 3.6242308,5.0678876 3.5733328,5.1191827 3.5761719,5.1347656 3.520598,5.0962718 3.4325266,5.029799 3.3007812,4.8691406 L 3.1855469,4.7285156 3.0078125,4.6933594 C 2.8209329,4.6580413 2.7399112,4.6063429 2.7246094,4.5878906 2.7093076,4.5694383 2.6646358,4.5224166 2.7167969,4.2480469 l 0.034644,-0.185164 A 0.19490726,0.19490726 69.060834 0 0 2.6785754,3.8724581 L 2.5292973,3.7578125 C 2.4807504,3.7207358 2.4451622,3.690189 2.4189454,3.6653822 2.3766443,3.625356 2.3746816,3.5451234 2.4141764,3.5019675 c 0.014399,-0.015734 0.031727,-0.033344 0.05262,-0.052749 l 0.100761,-0.093108 a 0.1731124,0.1731124 114.4259 0 0 0.05556,-0.1223346 l 0.00384,-0.1380728 c 0.00921,-0.3674452 0.1105554,-0.4020272 0.1679688,-0.421875 0.012743,-0.00441 0.027935,-0.00744 0.044922,-0.00781 z M 14.128617,3.2550194 c 0.01294,0.026025 0.02427,0.050009 0.02372,0.061387 -0.0037,0.078063 -0.03482,0.1518095 -0.132813,0.2734376 l -0.101562,0.1269531 -0.0078,0.1640625 c -0.0012,0.02699 -0.0028,0.048833 -0.0048,0.067435 -0.0086,0.082082 -0.07137,0.098374 -0.118739,0.030083 -0.123641,-0.1782723 -0.1672,-0.3575139 -0.238688,-0.5349663 -0.02069,-0.051347 0.003,-0.1051664 0.05624,-0.1213375 0.136224,-0.041362 0.272788,-0.081595 0.409219,-0.1222696 0.04439,-0.013232 0.09393,0.012404 0.115214,0.055216 z M 12.484525,3.661636 c 0.02282,0.2007053 -0.02661,0.408641 -0.05699,0.5978048 -0.01176,0.073215 -0.05246,0.083887 -0.08906,0.019148 -0.01075,-0.019022 -0.02287,-0.042277 -0.03769,-0.073511 L 12.230471,4.0585938 12.08594,3.9804688 c -0.137499,-0.074092 -0.194782,-0.1306753 -0.228516,-0.2011719 -0.01036,-0.021649 0.0073,-0.1162226 0,-0.1523438 l 0.509151,-0.053853 c 0.05535,-0.00585 0.111667,0.033272 0.11795,0.088536 z"
     inkscape:path-effect="#path-effect26038"
     inkscape:original-d="m 13.25,0.4277344 c -0.03159,2.499e-4 -0.06419,0.00192 -0.0957,0.00586 -0.311506,0.03894 -0.537525,0.2242785 -0.683594,0.4628907 -0.226575,-0.1629883 -0.508244,-0.2451255 -0.810547,-0.1601563 -0.244631,0.068759 -0.448637,0.2508277 -0.574218,0.46875 -0.116718,0.202538 -0.1734,0.4458633 -0.203126,0.7207031 -0.11636,0.1511268 -0.260756,0.2765478 -0.28125,0.5019532 -0.02621,0.2882749 0.064,0.5732519 0.238282,0.859375 -0.01591,0.1177124 -0.02078,0.2306648 -0.01758,0.3398437 -0.76806,0.3955819 -1.2237485,1.1713616 -1.4746108,1.96289 C 9.0884562,6.4076796 9.011868,7.2869033 8.9960938,8 H 5.984375 C 5.969431,7.4796788 5.9142111,6.8584073 5.7851562,6.2421875 5.7465055,6.057635 5.7031441,5.8727344 5.6503906,5.6914062 5.9015064,5.5497846 6.0588312,5.350521 6.1757812,5.1855469 6.2782712,5.0782326 6.3580019,4.9468016 6.4042969,4.8125 6.4768226,4.6021026 6.4914572,4.3641094 6.4882812,4.0898438 6.6100822,3.8954481 6.7529696,3.7084041 6.7460938,3.4316406 6.738617,3.1306845 6.5090584,2.8723342 6.2734375,2.6269531 6.2884802,2.3113513 6.309834,1.9851695 6.109375,1.7695312 5.9055034,1.550222 5.6552914,1.473044 5.4238281,1.4453125 5.0047996,1.0808891 4.4810161,0.9632825 4.0605469,1.1328125 3.7505427,1.2578194 3.5227114,1.5042046 3.4023438,1.8007812 3.1173397,1.6563869 2.784087,1.6194937 2.46875,1.7285156 2.040246,1.8766477 1.7215684,2.3095296 1.6445312,2.859375 1.4878627,3.0324363 1.3493096,3.254921 1.3398438,3.5546875 1.3305031,3.8504936 1.5625418,4.0836816 1.7832031,4.3125 c -0.015499,0.3379627 -0.019409,0.6814416 0.171875,0.9121094 0.1765928,0.2129515 0.4075848,0.2615528 0.6269531,0.328125 0.1771604,0.2082033 0.3447554,0.379404 0.5371094,0.4902344 0.1298266,0.074803 0.2839417,0.124944 0.4394532,0.1347656 0.2029737,0.047973 0.4578313,0.086597 0.7421874,0.021484 C 4.4372221,6.167976 4.5656875,6.0850994 4.6894531,5.984375 4.7343157,6.1329389 4.7733735,6.2884192 4.8066406,6.4472656 4.9170159,6.9742937 4.9671681,7.5331835 4.9824219,8 H 2.8867188 C 2.4030142,8 2,8.4030142 2,8.8867188 V 10.113281 C 2,10.596986 2.4030142,11 2.8867188,11 H 12.761719 L 11.4375,13.310547 C 11.213996,13.700523 10.869406,14 10.419922,14 H 5.5800781 C 5.1530173,14 4.7791343,13.725553 4.6503906,13.318359 L 3.9257812,11.865234 C 3.787883,11.589363 3.5056811,11.415352 3.1972656,11.416016 H 2.9726562 c -0.1507764,-3.1e-4 -0.2502744,0.156792 -0.1855468,0.292968 l 0.9101562,1.91211 C 3.9562646,14.440295 4.7209422,15 5.5800781,15 h 4.8398439 c 0.855366,0 1.627638,-0.522219 1.945312,-1.316406 l 1.455078,-2.638672 C 14.014106,10.560435 13.63509,9.999999 13.113281,10 H 3.0878906 C 3.0393941,9.999893 3.0001065,9.960606 3,9.912109 V 9.123047 C 3.0001532,9.055154 3.0551535,9.000153 3.1230469,9 h 9.8320311 c 0.0246,5.04e-4 0.04442,0.02032 0.04492,0.04492 0.0053,0.422895 0.352499,0.761375 0.775391,0.755859 h 0.05469 c 0.09384,0 0.169918,-0.07608 0.169919,-0.169922 V 8.8867188 C 13.999998,8.4030139 13.596987,7.9999995 13.113281,8 H 9.9980469 c 0.017464,-0.6545218 0.092507,-1.4441069 0.3027341,-2.1074219 0.200332,-0.6320907 0.48964,-1.1104211 0.933594,-1.3554687 0.06221,0.048288 0.12637,0.09337 0.189453,0.1386718 0.127886,0.2637763 0.24537,0.4718977 0.392578,0.6328126 0.156744,0.1713383 0.409373,0.3296819 0.69336,0.2949218 0.283985,-0.03476 0.447767,-0.2090942 0.552734,-0.3457031 0.09267,-0.120601 0.15725,-0.2417212 0.216797,-0.359375 0.100475,0.084957 0.205741,0.1709076 0.337891,0.2460937 0.149738,0.085194 0.367344,0.1835922 0.642578,0.1054688 0.275232,-0.078124 0.447384,-0.3222915 0.52539,-0.5410156 0.07431,-0.2083634 0.103851,-0.4472385 0.119141,-0.7460938 0.108723,-0.1800292 0.236138,-0.3514561 0.248047,-0.5996094 0.01407,-0.2933634 -0.07509,-0.5956789 -0.253906,-0.8984374 0.04937,-0.330582 0.0225,-0.6257199 -0.113282,-0.8808594 C 14.67919,1.3848619 14.497305,1.3246002 14.332031,1.2304688 14.197849,0.9880882 14.051701,0.7861787 13.865234,0.6445312 13.689986,0.5114053 13.471137,0.4259851 13.25,0.4277344 Z m 0.03711,1.0449218 c 0.04535,0.040319 0.114822,0.1148507 0.195313,0.2675782 l 0.09375,0.1796875 0.193359,0.0625 c 0.116902,0.038044 0.124644,0.054963 0.132813,0.070312 0.0028,0.00524 -0.01228,0.1092572 -0.0078,0.1386718 l -0.205078,0.060547 -0.375,0.1132813 c -0.05361,-0.3046142 -0.08213,-0.5552132 -0.03711,-0.8183594 0.0076,-0.044503 0.0098,-0.063831 0.0098,-0.074219 z M 11.9375,1.7441406 c 0.004,0.00939 0.01377,0.026755 0.03906,0.066406 0.143433,0.2248671 0.214498,0.4664281 0.283204,0.7675781 -0.201127,0.021887 -0.402341,0.042971 -0.603512,0.064457 -0.0092,-0.031385 -0.05912,-0.1191038 -0.05859,-0.125 0.0016,-0.017318 0.0027,-0.034822 0.0957,-0.1152343 l 0.152344,-0.1328126 0.01758,-0.203125 c 0.01494,-0.1719673 0.04818,-0.2675159 0.07422,-0.3222656 z M 4.4863281,2.0449219 c 0.063471,-0.00852 0.165437,0.019299 0.3515625,0.2226562 l 0.1425782,0.15625 0.2089843,0.00586 c 0.1074327,0.00347 0.1609075,0.019681 0.1816407,0.025391 0.00341,0.024519 0.00682,0.088397 -0.025391,0.2460938 l -0.060547,0.3027343 0.2421876,0.1914063 c 0.2204473,0.1731547 0.2181561,0.237812 0.21875,0.2617187 5.939e-4,0.023907 -0.024674,0.1161505 -0.1425782,0.265625 L 5.4902344,3.8652344 5.4960938,4.046875 C 5.5023164,4.2593025 5.4796524,4.370512 5.4628906,4.4355469 5.4750139,4.414675 5.4096893,4.4207191 5.1992188,4.3339844 5.0423845,4.2693542 4.9127818,4.1022063 4.7519531,3.8457031 l 0.2734375,-0.125 C 5.6952147,2.9962695 4.5008197,2.9414252 4.4082031,2.9003906 4.3318124,2.6649163 4.279851,2.473349 4.3085938,2.2519531 c 0.013419,-0.1033854 0.074933,-0.1712172 0.125,-0.1914062 0.014092,-0.00568 0.031577,-0.012786 0.052734,-0.015625 z M 2.8398438,2.6660156 c 0.05096,-0.00111 0.1172836,0.018428 0.1757812,0.070312 0.1674466,0.148543 0.2543063,0.3259314 0.3515625,0.5546875 -0.3160059,0.200755 -0.3951316,0.386845 -0.15625,1.0917974 L 3.7304688,4.2285156 C 3.7775673,4.5277019 3.7887919,4.7388731 3.7128906,4.890625 3.6242308,5.0678876 3.5733328,5.1191827 3.5761719,5.1347656 3.520598,5.0962718 3.4325266,5.029799 3.3007812,4.8691406 L 3.1855469,4.7285156 3.0078125,4.6933594 C 2.8209329,4.6580413 2.7399112,4.6063429 2.7246094,4.5878906 2.7093076,4.5694383 2.6646358,4.5224166 2.7167969,4.2480469 l 0.056641,-0.3027344 -0.2441406,-0.1875 C 2.4006805,3.6595841 2.3630204,3.6071887 2.3496094,3.5859375 2.3618961,3.5667648 2.3906915,3.5199024 2.4667969,3.4492188 l 0.1542969,-0.1425782 0.00586,-0.2109375 c 0.00921,-0.3674452 0.1105554,-0.4020272 0.1679688,-0.421875 0.012743,-0.00441 0.027935,-0.00744 0.044922,-0.00781 z M 14.09375,3.1757812 c 0.0085,0.037242 0.05974,0.1167302 0.05859,0.140625 -0.0037,0.078063 -0.03482,0.1518095 -0.132813,0.2734376 l -0.101562,0.1269531 -0.0078,0.1640625 c -0.0052,0.1163545 -0.01848,0.1370489 -0.0293,0.2148437 C 13.65243,3.8482281 13.625304,3.5976982 13.507814,3.3515626 13.702661,3.2914316 13.898438,3.2343749 14.09375,3.1757812 Z M 12.466797,3.5625 c 0.06934,0.2779818 -0.03426,0.5788085 -0.05664,0.8300781 -0.04019,-0.067554 -0.05937,-0.082111 -0.109375,-0.1875 L 12.230471,4.0585938 12.08594,3.9804688 c -0.137499,-0.074092 -0.194782,-0.1306753 -0.228516,-0.2011719 -0.01036,-0.021649 0.0073,-0.1162226 0,-0.1523438 z"
     sodipodi:nodetypes="sccsscsccsccsccscscscccccscscscscscssssccssccccccssccccccccccscsccsccssscssscccccsscccccccccccccccccccccccccccccsccccscccccccccccsccccscccccccccccccccccccccccscc" /></svg>
