<?xml version="1.0" encoding="UTF-8" standalone="no"?>
<!-- Created with Inkscape (http://www.inkscape.org/) -->

<svg
   width="16"
   height="16"
   viewBox="0 0 16 16"
   version="1.1"
   id="svg1525"
   inkscape:version="1.2.2 (b0a8486541, 2022-12-01)"
   sodipodi:docname="template.svg"
   xmlns:inkscape="http://www.inkscape.org/namespaces/inkscape"
   xmlns:sodipodi="http://sodipodi.sourceforge.net/DTD/sodipodi-0.dtd"
   xmlns="http://www.w3.org/2000/svg"
   xmlns:svg="http://www.w3.org/2000/svg">
  <sodipodi:namedview
     id="namedview1527"
     pagecolor="#ffffff"
     bordercolor="#000000"
     borderopacity="0.23921569"
     inkscape:showpageshadow="false"
     inkscape:pageopacity="0.0"
     inkscape:pagecheckerboard="0"
     inkscape:deskcolor="#ffffff"
     inkscape:document-units="px"
     showgrid="true"
     showborder="false"
     guidecolor="#1fca00"
     guideopacity="0.6"
     showguides="true"
     inkscape:zoom="44.362289"
     inkscape:cx="4.3730836"
     inkscape:cy="7.1569796"
     inkscape:window-width="1808"
     inkscape:window-height="1122"
     inkscape:window-x="3808"
     inkscape:window-y="93"
     inkscape:window-maximized="0"
     inkscape:current-layer="svg1525"
     inkscape:pageshadow="2">
    <inkscape:grid
       type="xygrid"
       id="grid1656"
       empspacing="4"
       color="#0099e5"
       opacity="0.05882353"
       empcolor="#0099e5"
       empopacity="0.18039216"
       dotted="false" />
    <inkscape:grid
       type="xygrid"
       id="grid130"
       empspacing="1"
       spacingx="0.5"
       spacingy="0.5"
       empcolor="#0099e5"
       empopacity="0.05490196"
       color="#0099e5"
       opacity="0" />
  </sodipodi:namedview>
  <defs
     id="defs1522">
    <inkscape:path-effect
       effect="fillet_chamfer"
       id="path-effect534"
       is_visible="true"
       lpeversion="1"
       nodesatellites_param="F,0,0,1,0,0.55742007,0,1 @ F,0,0,1,0,0.20865601,0,1 @ F,0,0,1,0,0.25978357,0,1 @ F,0,0,1,0,0.23533254,0,1"
       unit="px"
       method="auto"
       mode="F"
       radius="0"
       chamfer_steps="1"
       flexible="false"
       use_knot_distance="true"
       apply_no_radius="true"
       apply_with_radius="true"
       only_selected="false"
       hide_knots="false" />
    <inkscape:path-effect
       effect="fillet_chamfer"
       id="path-effect532"
       is_visible="true"
       lpeversion="1"
       nodesatellites_param="F,0,0,1,0,0.14649759,0,1 @ F,0,0,1,0,0.41571405,0,1 @ F,0,0,1,0,0.12944663,0,1 @ F,0,0,1,0,0.5,0,1"
       unit="px"
       method="auto"
       mode="F"
       radius="0"
       chamfer_steps="1"
       flexible="false"
       use_knot_distance="true"
       apply_no_radius="true"
       apply_with_radius="true"
       only_selected="false"
       hide_knots="false" />
    <inkscape:path-effect
       effect="fillet_chamfer"
       id="path-effect885"
       is_visible="true"
       lpeversion="1"
       satellites_param="F,0,0,1,0,0,0,1 @ F,0,0,1,0,2,0,1 @ F,0,0,1,0,0,0,1 @ F,0,0,1,0,0,0,1 @ F,0,0,1,0,0,0,1 @ F,0,1,1,0,5.5,0,1"
       unit="px"
       method="auto"
       mode="F"
       radius="5.5"
       chamfer_steps="1"
       flexible="false"
       use_knot_distance="true"
       apply_no_radius="true"
       apply_with_radius="true"
       only_selected="true"
       hide_knots="false"
       nodesatellites_param="F,0,0,1,0,0,0,1 @ F,0,0,1,0,2,0,1 @ F,0,0,1,0,0,0,1 @ F,0,0,1,0,0,0,1 @ F,0,0,1,0,0,0,1 @ F,0,1,1,0,5.5,0,1" />
    <inkscape:path-effect
       effect="fillet_chamfer"
       id="path-effect1101"
       is_visible="true"
       lpeversion="1"
       nodesatellites_param="F,0,0,1,0,0,0,1 @ F,0,0,1,0,0,0,1 @ F,0,0,1,0,0,0,1 @ F,0,0,1,0,0,0,1 @ F,0,0,1,0,0,0,1 @ F,0,0,1,0,0.25,0,1 @ F,0,0,1,0,0.75,0,1 @ F,0,0,1,0,0,0,1 @ F,0,0,1,0,0,0,1 @ F,0,0,1,0,0,0,1 @ F,0,0,1,0,0,0,1 @ F,0,0,1,0,0,0,1 @ F,0,0,1,0,0,0,1 @ F,0,0,1,0,0,0,1 @ F,0,1,1,0,1,0,1 @ F,0,0,1,0,0,0,1 @ F,0,0,1,0,0,0,1 @ F,0,0,1,0,0.25,0,1 @ F,0,0,1,0,0.75,0,1 @ F,0,0,1,0,0,0,1 @ F,0,0,1,0,0,0,1 @ F,0,0,1,0,2,0,1 @ F,0,0,1,0,0,0,1 @ F,0,0,1,0,0,0,1"
       unit="px"
       method="auto"
       mode="F"
       radius="1"
       chamfer_steps="1"
       flexible="false"
       use_knot_distance="true"
       apply_no_radius="true"
       apply_with_radius="true"
       only_selected="true"
       hide_knots="false" />
    <inkscape:path-effect
       effect="fillet_chamfer"
       id="path-effect954"
       is_visible="true"
       lpeversion="1"
       nodesatellites_param="F,0,0,1,0,0,0,1 @ F,0,1,1,0,5,0,1 @ F,0,0,1,0,1.5,0,1 @ F,0,0,1,0,1.5,0,1 @ F,0,0,1,0,1.5,0,1 @ F,0,0,1,0,0,0,1 @ F,0,0,1,0,1.5,0,1 @ F,0,0,1,0,0,0,1"
       unit="px"
       method="auto"
       mode="F"
       radius="5"
       chamfer_steps="1"
       flexible="false"
       use_knot_distance="true"
       apply_no_radius="true"
       apply_with_radius="true"
       only_selected="true"
       hide_knots="false" />
    <clipPath
       clipPathUnits="userSpaceOnUse"
       id="clipath_lpe_path-effect481">
      <circle
         style="display:none;fill:#c8c8c8;fill-opacity:1;stroke:none;stroke-width:0.1;stroke-linecap:square;stroke-miterlimit:4;stroke-dasharray:none;stroke-opacity:1"
         id="circle487"
         cx="-79"
         cy="120"
         r="8" />
    </clipPath>
    <inkscape:path-effect
       effect="powerclip"
       id="path-effect481"
       is_visible="true"
       lpeversion="1"
       inverse="true"
       flatten="false"
       hide_clip="false"
       message="Use fill-rule evenodd on &lt;b&gt;fill and stroke&lt;/b&gt; dialog if no flatten result after convert clip to paths." />
    <clipPath
       clipPathUnits="userSpaceOnUse"
       id="clipath_lpe_path-effect485">
      <rect
         style="display:block;fill:#c8c8c8;fill-opacity:1;stroke:none;stroke-width:0.2;stroke-linecap:square;stroke-miterlimit:4;stroke-dasharray:none;stroke-opacity:1"
         id="rect492"
         width="16"
         height="16"
         x="-87"
         y="112" />
    </clipPath>
    <inkscape:path-effect
       effect="powerclip"
       id="path-effect485"
       is_visible="true"
       lpeversion="1"
       inverse="true"
       flatten="false"
       hide_clip="false"
       message="Use fill-rule evenodd on &lt;b&gt;fill and stroke&lt;/b&gt; dialog if no flatten result after convert clip to paths." />
  </defs>
  <path
     id="path248"
     style="color:#000000;fill:#786d7d;fill-opacity:1;stroke-linecap:square;-inkscape-stroke:none;paint-order:markers stroke fill"
     d="M 4,0 C 2.901355,0 2,0.90135502 2,2 v 12 c 0,1.098645 0.901355,2 2,2 h 5.5 c 2.777492,0 5.079595,-2.072685 5.446331,-4.751438 C 14.965071,11.111676 14.933369,11 14.65625,11 14.379131,11 13.942083,11.337224 13.829278,11.735282 13.294336,13.622955 11.562522,15 9.5,15 H 4 C 3.4417941,15 3,14.558206 3,14 V 2 C 3,1.4417941 3.4417941,1 4,1 h 9 c 0.558206,0 1,0.4417941 1,1 v 6 c 0,0.5522847 -0.447715,1 -1,1 H 11 C 9.901355,9 9,9.901355 9,11 v 2.75 C 9,13.888071 9.1119288,14 9.25,14 9.6642136,14 10,13.664214 10,13.25 V 11 c 0,-0.558206 0.441794,-1 1,-1 h 2 c 1.104569,0 2,-0.8954305 2,-2 V 2 C 15,0.90135502 14.098645,0 13,0 Z"
     sodipodi:nodetypes="sssssccsssssscsccccccssssssss" />
  <path
     style="color:#000000;fill:#786d7d;-inkscape-stroke:none;fill-opacity:1;opacity:0.5"
     d="M 4,3.5574201 V 3.791344 A 0.20865601,0.20865601 45 0 0 4.208656,4 h 8.53156 A 0.25978357,0.25978357 135 0 0 13,3.7402164 V 3.2353325 A 0.23533254,0.23533254 45 0 0 12.764667,3 H 4.5574201 A 0.55742007,0.55742007 135 0 0 4,3.5574201 Z"
     id="path424"
     inkscape:path-effect="#path-effect534"
     inkscape:original-d="m 4,3 v 1 h 9 V 3 Z" />
  <path
     style="color:#000000;fill:#786d7d;-inkscape-stroke:none;fill-opacity:1;opacity:0.5"
     d="M 5,2.1464976 V 13.584286 A 0.41571405,0.41571405 45 0 0 5.415714,14 H 5.8705534 A 0.12944663,0.12944663 135 0 0 6,13.870553 V 2.5 A 0.5,0.5 45 0 0 5.5,2 H 5.1464976 A 0.14649759,0.14649759 135 0 0 5,2.1464976 Z"
     id="path426"
     inkscape:path-effect="#path-effect532"
     inkscape:original-d="M 5,2 V 14 H 6 V 2 Z" />
</svg>
