<?xml version="1.0" encoding="UTF-8" standalone="no"?>
<svg
   viewBox="0 0 16 16"
   version="1.1"
   id="svg6"
   sodipodi:docname="window-close.svg"
   inkscape:version="1.2.2 (b0a8486541, 2022-12-01)"
   xmlns:inkscape="http://www.inkscape.org/namespaces/inkscape"
   xmlns:sodipodi="http://sodipodi.sourceforge.net/DTD/sodipodi-0.dtd"
   xmlns="http://www.w3.org/2000/svg"
   xmlns:svg="http://www.w3.org/2000/svg">
  <sodipodi:namedview
     id="namedview8"
     pagecolor="#ffffff"
     bordercolor="#000000"
     borderopacity="0.25"
     inkscape:showpageshadow="2"
     inkscape:pageopacity="0.0"
     inkscape:pagecheckerboard="0"
     inkscape:deskcolor="#d1d1d1"
     showgrid="true"
     inkscape:zoom="32.836271"
     inkscape:cx="5.0706123"
     inkscape:cy="5.9994632"
     inkscape:window-width="2560"
     inkscape:window-height="1355"
     inkscape:window-x="0"
     inkscape:window-y="0"
     inkscape:window-maximized="1"
     inkscape:current-layer="svg6">
    <inkscape:grid
       type="xygrid"
       id="grid187" />
    <inkscape:grid
       type="xygrid"
       id="grid291"
       empspacing="1"
       spacingx="0.5"
       spacingy="0.5"
       empcolor="#0099e5"
       empopacity="0.08235294" />
  </sodipodi:namedview>
  <defs
     id="defs3051">
    <inkscape:path-effect
       effect="fillet_chamfer"
       id="path-effect1378"
       is_visible="true"
       lpeversion="1"
       nodesatellites_param="F,0,0,1,0,0,0,1 @ F,0,0,1,0,0,0,1 @ F,0,0,1,0,0,0,1 @ F,0,1,1,0,0.33,0,1 @ F,0,1,1,0,0.33,0,1 @ F,0,0,1,0,0,0,1 @ F,0,0,1,0,0,0,1 @ F,0,0,1,0,0,0,1 @ F,0,0,1,0,0,0,1 @ F,0,1,1,0,0.33,0,1 @ F,0,1,1,0,0.33,0,1 @ F,0,0,1,0,0,0,1 | F,0,0,1,0,0,0,1 @ F,0,0,1,0,0,0,1 @ F,0,0,1,0,0,0,1 @ F,0,0,1,0,0,0,1 @ F,0,0,1,0,0,0,1 @ F,0,0,1,0,0,0,1 @ F,0,0,1,0,0,0,1 @ F,0,0,1,0,0,0,1 @ F,0,0,1,0,0,0,1 @ F,0,0,1,0,0,0,1 @ F,0,0,1,0,0,0,1 @ F,0,0,1,0,0,0,1 @ F,0,0,1,0,0,0,1 @ F,0,0,1,0,0,0,1 @ F,0,0,1,0,0,0,1 @ F,0,0,1,0,0,0,1 @ F,0,0,1,0,0,0,1 @ F,0,0,1,0,0,0,1 @ F,0,0,1,0,0,0,1 @ F,0,0,1,0,0,0,1 @ F,0,0,1,0,0,0,1"
       unit="px"
       method="auto"
       mode="F"
       radius="0.33"
       chamfer_steps="1"
       flexible="false"
       use_knot_distance="true"
       apply_no_radius="true"
       apply_with_radius="true"
       only_selected="true"
       hide_knots="false" />
    <inkscape:path-effect
       effect="fillet_chamfer"
       id="path-effect1243"
       is_visible="true"
       lpeversion="1"
       nodesatellites_param="F,0,0,1,0,0,0,1 @ F,0,0,1,0,0,0,1 @ F,0,0,1,0,0,0,1 @ F,0,0,1,0,0,0,1 | F,0,0,1,0,0,0,1 @ F,0,0,1,0,0,0,1 @ F,0,0,1,0,0,0,1 @ F,0,0,1,0,0,0,1 | F,0,1,1,0,0.33,0,1 @ F,0,1,1,0,0.33,0,1 @ F,0,0,1,0,0,0,1 @ F,0,1,1,0,0.33,0,1 @ F,0,1,1,0,0.33,0,1 @ F,0,0,1,0,0,0,1 @ F,0,1,1,0,0.33,0,1 @ F,0,1,1,0,0.33,0,1 @ F,0,0,1,0,0,0,1 @ F,0,1,1,0,0.33,0,1 @ F,0,1,1,0,0.33,0,1 @ F,0,0,1,0,0,0,1"
       unit="px"
       method="auto"
       mode="F"
       radius="0.33"
       chamfer_steps="1"
       flexible="false"
       use_knot_distance="true"
       apply_no_radius="true"
       apply_with_radius="true"
       only_selected="true"
       hide_knots="false" />
    <style
       type="text/css"
       id="current-color-scheme">
      .ColorScheme-Text {
        color:#232629;
      }
      .ColorScheme-NegativeText {
        color:#da4453;
      }
      </style>
  </defs>
  <path
     id="circle1383"
     style="opacity:0.15;fill:#821313"
     d="M 15,8 A 7,7 0 0 1 8,15 7,7 0 0 1 1,8 7,7 0 0 1 8,1 7,7 0 0 1 15,8 Z" />
  <path
     id="path295"
     style="color:#000000;fill:#821313;-inkscape-stroke:none"
     d="M 8,1 C 4.1399407,1 1,4.1399407 1,8 c 0,3.860059 3.1399407,7 7,7 1.5419745,0 2.967476,-0.501686 4.125148,-1.349638 0.147017,-0.107684 0.157099,-0.305615 0.02823,-0.434488 L 11.913033,12.975533 C 11.78416,12.84666 11.563469,12.833632 11.413626,12.937338 10.445262,13.607538 9.2698285,14 8,14 4.6803791,14 2,11.319621 2,8 2,4.6803791 4.6803791,2 8,2 c 3.319621,0 6,2.6803791 6,6 0,1.2698292 -0.392463,2.445264 -1.062663,3.413627 -0.103706,0.149843 -0.09068,0.370533 0.0382,0.499406 l 0.240341,0.240341 c 0.128873,0.128873 0.326805,0.118789 0.43449,-0.02823 C 14.498314,10.967474 15,9.5419733 15,8 15,4.1399407 11.860059,1 8,1 Z M 5.2675781,4.7949219 c -0.055285,0.014818 -0.1057657,0.04376 -0.1464843,0.083984 L 4.8789062,5.1210938 c -0.1276467,0.1286589 -0.1276467,0.3361848 0,0.4648437 L 7.2929688,8 4.8789062,10.414062 c -0.1276468,0.128659 -0.1276468,0.336185 0,0.464844 l 0.2421876,0.242188 c 0.1286589,0.127647 0.3361848,0.127647 0.4648437,0 L 8,8.7070312 10.414062,11.121094 c 0.128659,0.127647 0.336185,0.127647 0.464844,0 l 0.242188,-0.242188 c 0.127647,-0.128659 0.127647,-0.336185 0,-0.464844 L 8.7070312,8 11.121094,5.5859375 c 0.127647,-0.1286589 0.127647,-0.3361848 0,-0.4648437 L 10.878906,4.8789062 c -0.128659,-0.1276468 -0.336185,-0.1276468 -0.464844,0 L 8,7.2929688 5.5859375,4.8789062 C 5.5023599,4.7961904 5.3810818,4.7641968 5.2675781,4.7949219 Z" />
</svg>
