<?xml version="1.0" encoding="UTF-8" standalone="no"?>
<!-- Created with Inkscape (http://www.inkscape.org/) -->

<svg
   width="16"
   height="16"
   viewBox="0 0 16 16"
   version="1.1"
   id="svg5"
   inkscape:version="1.2.2 (b0a8486541, 2022-12-01)"
   sodipodi:docname="sketches.svg"
   xmlns:inkscape="http://www.inkscape.org/namespaces/inkscape"
   xmlns:sodipodi="http://sodipodi.sourceforge.net/DTD/sodipodi-0.dtd"
   xmlns="http://www.w3.org/2000/svg"
   xmlns:svg="http://www.w3.org/2000/svg">
  <sodipodi:namedview
     id="namedview7"
     pagecolor="#ffffff"
     bordercolor="#000000"
     borderopacity="0.36078431"
     inkscape:pageshadow="2"
     inkscape:pageopacity="0.0"
     inkscape:pagecheckerboard="0"
     inkscape:document-units="px"
     showgrid="true"
     inkscape:showpageshadow="false"
     borderlayer="false"
     inkscape:zoom="11.170445"
     inkscape:cx="28.960349"
     inkscape:cy="29.497481"
     inkscape:window-width="1368"
     inkscape:window-height="1367"
     inkscape:window-x="0"
     inkscape:window-y="0"
     inkscape:window-maximized="0"
     inkscape:current-layer="layer1"
     inkscape:snap-global="false"
     inkscape:deskcolor="#ffffff">
    <inkscape:grid
       type="xygrid"
       id="grid881"
       empspacing="4"
       color="#3f3fff"
       opacity="0.07843137"
       empcolor="#3f3fff"
       empopacity="0.18039216" />
  </sodipodi:namedview>
  <defs
     id="defs2">
    <rect
       x="77.190142"
       y="-16.482405"
       width="60.928569"
       height="13.533907"
       id="rect24340" />
    <rect
       x="47.441517"
       y="-18.412203"
       width="68.245541"
       height="15.734903"
       id="rect20962" />
    <rect
       x="21.532774"
       y="-14.456518"
       width="42.006092"
       height="15.692987"
       id="rect11474" />
  </defs>
  <g
     inkscape:label="Layer 1"
     inkscape:groupmode="layer"
     id="layer1">
    <path
       style="fill:none"
       d="M 4,4 C 3.0694682,5.3383378 0.8543929,10.92312 3.8304043,11.662354 4.7400088,11.888298 5.6333206,11.178475 6.4981892,11.464916 7.553683,11.814491 8.0617948,15.769049 9.2866879,14.040397 10.537323,12.275417 10.999849,9.6489644 10.152873,7.6345983 9.8904041,7.0103688 8.7419892,5.3621937 8,6"
       id="path909" />
    <path
       style="fill:none;stroke:#000000;stroke-linecap:round;stroke-opacity:1"
       d="m 10,2 c 0.770239,1.9801326 -0.2749161,7.6278465 1,9"
       id="path1028" />
    <path
       style="fill:none;stroke:#000000;stroke-linecap:round;stroke-opacity:1"
       d="M 10,7 C 11.225066,6.0176744 11.617888,4.5080108 12.54237,3.2991465 12.794495,2.9694638 13.995054,1.5882883 14,2"
       id="path1030" />
    <path
       style="fill:none;stroke:#000000;stroke-linecap:round;stroke-opacity:1"
       d="m 10,7 c 1.171812,0.7826039 2.435764,1.5506707 3.427639,2.5700932 0.231162,0.2375818 0.547677,1.0186348 0.687806,0.7182268 C 14.159208,10.194501 14.038482,10.096107 14,10"
       id="path1032" />
    <path
       style="fill:none;stroke:#000000;stroke-linecap:round;stroke-opacity:1"
       d="M 8,4 C 7.9188726,3.8762572 7.8908605,3.6910037 7.7566178,3.6287717 7.0925996,3.3209477 6.4949204,3.9397669 5.9514067,4.1200721 2.4340635,5.2869152 3.2485082,9.1238903 4.7293309,11.558466 5.9999333,13.647426 6.4242114,13.807844 8.8530664,13.807844 9.3549442,13.807844 10.89896,12.477144 10,13"
       id="path1038" />
    <path
       style="fill:none;stroke:#000000;stroke-linecap:round;stroke-opacity:1"
       d="m 11,13 c 0.631791,0.404266 1.209374,1.084208 2,1"
       id="path1040" />
    <path
       style="fill:none;stroke:#000000;stroke-linecap:round;stroke-opacity:1"
       d="m 8,14 c 0.2691936,0.289983 -0.3501277,1.380734 0,1"
       id="path1042" />
    <path
       style="fill:none;stroke:#000000;stroke-linecap:round;stroke-opacity:1"
       d="M 6,13 C 5.2766097,12.578767 4.0833642,13.120323 4,14"
       id="path1044" />
    <path
       style="fill:none;stroke:#000000;stroke-linecap:round;stroke-opacity:1"
       d="M 4,10 C 3.2404285,9.5565907 0.99947345,11.002269 2,10"
       id="path1046" />
    <path
       style="fill:none;stroke:#000000;stroke-linecap:round;stroke-opacity:1"
       d="M 3,7 C 2.3092377,6.7994027 2.0849187,6.3403863 2,7"
       id="path1048" />
    <path
       style="fill:none;stroke:#000000;stroke-linecap:round;stroke-opacity:1"
       d="M 5,4 C 5.0620022,4.4071035 4.1179084,3.4963852 4,3"
       id="path1050" />
    <path
       style="fill:none;stroke:#000000;stroke-linecap:round;stroke-opacity:1"
       d="M 8,3 C 7.4302644,3.5228867 8.5016992,2.1849738 8,2"
       id="path1052" />
    <path
       style="fill:none;stroke:#000000;stroke-width:1;stroke-dasharray:none;stroke-linecap:round"
       d="m 26.569819,11.166097 c -0.02261,-0.317392 -0.01353,-0.634208 0.01238,-0.949693 0.0263,-0.3202006 -0.02164,-0.6514939 -0.0062,-0.9720108 0.02715,-0.5632288 0.156501,-1.1306846 0.09935,-1.6982466 -0.03938,-0.3910247 -0.151878,-0.7688441 -0.111729,-1.1675355 0.0011,-0.011037 -0.0087,-0.081546 0,-0.089412 0.04929,-0.044702 0.738546,-0.039163 0.844156,-0.039163 0.548112,0 1.104342,-0.06573 1.651165,-0.1117286 0.163285,-0.013735 0.320743,-0.07426 0.484206,-0.083797 0.445159,-0.02597 0.89053,0.029092 1.334552,-0.011087 0.228948,-0.020717 0.999059,-0.2571257 1.185677,-0.2011403 0.06598,0.019795 -0.334628,0.5159856 -0.353903,0.5474127 -0.271714,0.4430123 -0.586209,0.8652664 -0.837965,1.3184268 -0.03794,0.068295 -0.06787,0.189382 -0.09315,0.2457742"
       id="path1145" />
    <path
       style="fill:none;stroke:#000000;stroke-width:1;stroke-dasharray:none;stroke-linecap:round"
       d="m 26.644257,11.562762 c 0.227633,-0.277449 0.446286,-0.562516 0.682898,-0.832349 0.182974,-0.208664 0.616116,-0.369497 0.844156,-0.530711 0.29057,-0.2054197 0.558859,-0.4656463 0.862874,-0.648055"
       id="path1147" />
    <path
       style="fill:none;stroke:#000000;stroke-width:1;stroke-dasharray:none;stroke-linecap:round"
       d="m 28.580935,10.104675 c 0.157274,0.117344 0.316915,0.231582 0.471823,0.352032 0.03066,0.02384 0.03441,0.05371 0.05586,0.0838 0.04921,0.069 0.153789,0.145376 0.223458,0.195525 0.285067,0.205196 0.5567,0.402461 0.869064,0.558643 0.167697,0.08385 0.33735,0.227588 0.521353,0.279322 0.718243,0.201941 1.662562,0.268715 2.408501,0.173208 0.123318,-0.01579 0.25259,-0.0032 0.372476,-0.03916 0.179428,-0.0538 0.352355,-0.146674 0.515162,-0.234688 0.124067,-0.06707 0.279619,-0.09095 0.397385,-0.167593 0.261112,-0.169925 0.46288,-0.405243 0.688945,-0.608892 0.04433,-0.03993 0.101692,-0.05802 0.14902,-0.09488 0.177971,-0.138637 0.383467,-0.35713 0.50897,-0.541942 0.258046,-0.3799927 0.34152,-0.8378962 0.465632,-1.2681776 0.06346,-0.220003 0.161383,-0.4661304 0.179975,-0.6926888 0.01968,-0.239778 0.05262,-0.4716055 0.08682,-0.7093905 0.03454,-0.2402133 0.09868,-0.4783957 0.124255,-0.7207649 0.0046,-0.043952 0.05506,-0.4750018 0.03096,-0.4859332 -0.01951,-0.00885 -0.04175,0.00987 -0.06206,0.016702"
       id="path1149" />
    <path
       style="fill:none;stroke:#000000;stroke-width:1;stroke-dasharray:none;stroke-linecap:round"
       d="m 30.765979,7.7863056 c 0.132811,0.1718186 0.210071,0.5667666 0.42215,0.7262362 0.530503,0.3989053 1.774782,0.4648927 2.396118,0.2682351 0.471634,-0.1492755 0.957923,-0.4413171 1.334553,-0.7541683 0.05879,-0.048832 0.09827,-0.1173613 0.149019,-0.1732082 0.123594,-0.1360172 0.284253,-0.2761524 0.384859,-0.4302129 0.12002,-0.1837887 0.223235,-0.3878112 0.35376,-0.5641144 0.0358,-0.048351 0.484205,-0.7495098 0.484205,-0.7541683"
       id="path1151" />
    <path
       style="fill:none;stroke:#000000;stroke-width:1;stroke-linecap:round;stroke-dasharray:none"
       d="M 36.20987,6.4579442 C 36.21717,6.027334 36.30866,5.5741447 36.22225,5.1451327 36.171454,4.8929118 36.061128,4.652707 35.949122,4.4243678 35.812272,4.1453802 35.698394,3.9248725 35.527116,3.6647282 35.458492,3.5604995 35.406875,3.4319973 35.328423,3.3350135 35.173006,3.1428817 34.963271,2.9823835 34.76978,2.8322347 34.596039,2.6974116 34.371367,2.5949859 34.167655,2.5249809 33.970374,2.4571861 33.784554,2.3446978 33.590294,2.2681202 33.327305,2.1644488 33.045936,2.1316476 32.770903,2.0836816 32.258757,1.9943627 31.521181,1.8592927 30.995627,1.9719529 29.826446,2.222584 28.783853,2.9445508 28.55617,4.1729783"
       id="path1171" />
    <path
       style="fill:none;stroke:#000000;stroke-width:1;stroke-linecap:round;stroke-dasharray:none"
       d="m 47.885841,8.223985 c 0.04676,-0.00172 0.142007,0.041613 0.14029,-0.00515 -0.0017,-0.046763 -0.187029,0.00286 -0.14029,0.00515 0.567297,0.02778 1.259813,0.064881 1.753153,-0.2313771 0.04205,-0.02525 0.108497,-0.038852 0.14029,-0.078888 0.109865,-0.138348 0.247762,-0.2662249 0.350658,-0.404876 0.187936,-0.2532431 0.321751,-0.5449083 0.455705,-0.8257465 0.126349,-0.2648935 0.0978,-0.5896121 0.16374,-0.8571932 0.0073,-0.02951 -0.01391,-0.059295 -0.01762,-0.08946 -0.01346,-0.1094117 7.5e-5,-0.2416752 0.02345,-0.3471334 0.03437,-0.1550872 0.0036,-0.3831157 -0.07021,-0.515346 -0.01034,-0.018539 -0.02331,-0.2909098 -0.02331,-0.3261238 0,-0.1012672 -0.03511,-0.2080596 -0.03511,-0.3102649 0,-0.057627 -0.0066,-0.1016576 -0.02914,-0.1524893 -0.0025,-0.00559 0.0064,-0.042292 0.0058,-0.042155 -0.0092,0.00208 -0.01563,0.010573 -0.02345,0.015859"
       id="path1173" />
    <path
       style="fill:none;stroke:#000000;stroke-width:1;stroke-linecap:round;stroke-dasharray:none"
       d="m 47.932605,8.5606814 c 0.130228,0.07659 0.25648,0.1871145 0.397421,0.2471004 0.516416,0.219792 1.757838,0.2792032 2.320006,0.2156538 0.184625,-0.020871 0.365794,-0.067346 0.549232,-0.08946 0.232619,-0.028044 0.697167,-0.1251946 0.882405,-0.2681101 0.09404,-0.072557 0.206441,-0.159011 0.309723,-0.22094 0.06361,-0.038141 0.166495,-0.1049316 0.204539,-0.173499 0.07192,-0.1296166 0.186431,-0.2545173 0.268787,-0.3840019 0.08879,-0.139603 0.152982,-0.2978979 0.245474,-0.4364583 0.08777,-0.1314808 0.176487,-0.2597445 0.245474,-0.3997252 0.140264,-0.2846048 0.214965,-0.6015373 0.309723,-0.899348 0.03037,-0.095441 0.02234,-0.2077374 0.05842,-0.2996923 0.124567,-0.3174298 0.119383,-0.6701533 0.181225,-1.0045318 0.04974,-0.2689426 0.146922,-0.6522821 0.07591,-0.9099205"
       id="path1175" />
    <path
       style="fill:none;stroke:#000000;stroke-width:1;stroke-linecap:round;stroke-dasharray:none"
       d="M 50.667517,4.0166359 C 50.514432,3.9857527 50.3584,3.9914978 50.205847,3.964044 50.074842,3.9404679 49.937428,3.9506391 49.808426,3.927311 49.606352,3.8907689 49.145862,3.8086863 48.949471,3.8747192 c -0.05645,0.018982 -0.561025,-0.021534 -0.561025,-0.026296 0,-0.2089059 0.581603,-0.8785411 0.70118,-1.0939921 0.05938,-0.106999 0.09681,-0.2245987 0.157911,-0.3312745 0.1406,-0.2454895 0.321623,-0.4708439 0.473327,-0.7099902 0.120517,-0.1899836 0.216217,-0.3973596 0.333036,-0.5890831 0.08043,-0.13199685 0.205385,-0.24290841 0.298066,-0.36285673 0.06709,-0.0868247 0.118627,-0.19354618 0.187054,-0.27868266 0.07894,-0.0982192 0.03329,-0.02063 0.111012,-0.10003298 0.165489,-0.16907587 0.306222,-0.38704212 0.46167,-0.56793792 0.12024,-0.13992509 0.24107,-0.30994287 0.344693,-0.46275418 0.04622,-0.0681561 0.0647,-0.14985254 0.111012,-0.22094005 0.04496,-0.0690102 0.113465,-0.11861134 0.151947,-0.18407148 0.01356,-0.023066 0.127701,-0.1825914 0.157776,-0.173499 0.02541,0.00768 0.02365,0.048171 0.04093,0.068315 0.05916,0.068921 0.133988,0.1362106 0.19871,0.19979489 0.132958,0.13062004 0.279878,0.22691098 0.40325,0.36814305 0.130271,0.1491302 0.227085,0.3324203 0.338865,0.49447196 0.114304,0.16571098 0.254489,0.31611152 0.362315,0.48376383 0.0488,0.0758709 0.07927,0.16415265 0.134461,0.23666339 0.292281,0.38397628 0.639009,0.71318368 0.940825,1.08870578 0.15382,0.191384 0.287985,0.3945643 0.426564,0.5942339 0.254383,0.366525 0.598991,0.7047828 0.818156,1.0992784 0.06374,0.1147265 0.08318,0.2380635 0.187053,0.3312745 0.04675,0.041948 0.06298,0.1032132 0.09935,0.1524893 8.22e-4,0.00111 0.0475,0.049274 0.04094,0.047306 -0.107879,-0.032364 -0.235757,-0.025595 -0.350657,-0.036733 -0.310403,-0.030089 -0.61849,-0.044437 -0.929168,-0.063165 -0.178633,-0.010768 -0.374716,0.02101 -0.555197,0.02101"
       id="path1179" />
    <path
       style="fill:none;stroke:#000000;stroke-width:1;stroke-linecap:round;stroke-dasharray:none"
       d="m 12.063869,39.807975 c -0.03506,0.09461 -0.07671,0.187036 -0.105184,0.283833 -0.09722,0.330485 0.04211,0.831792 0.105184,1.157021 0.09403,0.484805 0.09188,1.075956 -0.01166,1.556882 -0.142668,0.662662 -0.334456,1.302604 -0.292237,1.987918 0.03584,0.581842 0.229562,1.171927 0.19871,1.756677 -0.0069,0.131653 -0.160596,1.131119 -0.08187,1.219914 0.201581,0.227365 1.107968,0.220941 1.390703,0.220941 0.823629,0 1.634169,-0.02194 2.454467,-0.06316 0.740389,-0.03721 1.578752,-0.105416 2.314314,-0.04202 0.323087,0.02785 0.634033,0.09619 0.95831,0.115756 1.082312,0.06529 2.242212,0.0658 3.319252,-0.09461 0.391714,-0.05834 0.77688,-0.03828 1.168677,-0.07374 0.109744,-0.0099 0.257301,-0.02109 0.362451,0.01057 0.07115,0.02143 0.210367,0.148042 0.210367,0.07374 0,-1.0094 -0.224175,-2.038729 -0.175397,-3.0506 0.01758,-0.364713 0.11856,-0.734292 0.140155,-1.104429 0.02835,-0.485835 0.0011,-0.975816 0.02359,-1.461999 0.01302,-0.281909 0.04425,-0.56865 0.02331,-0.852043 -0.03161,-0.427894 -0.09353,-0.849417 -0.09353,-1.283079 0,-0.01557 0.01952,-0.322557 -0.01166,-0.336696 -0.01543,-0.007 -0.08008,0.04429 -0.105183,0.04202 -0.375418,-0.03397 -0.832393,-0.111527 -1.215577,-0.04202 -0.08357,0.01516 -0.517852,0.09451 -0.596132,0.04202 -0.0976,-0.06544 0.0016,-0.376728 0.03524,-0.452181 0.263209,-0.590318 0.208204,-0.762071 -0.02359,-1.314797 -0.0079,-0.01877 -0.04179,-0.258009 -0.05829,-0.262959 -0.157133,-0.04714 -1.16007,-0.07419 -1.367388,-0.06316 -0.129233,0.0069 -0.546654,0.118612 -0.584475,0.08431 -0.0044,-0.004 -0.100533,-1.934218 -0.175396,-1.988189 -0.04144,-0.02988 -0.100812,0.02422 -0.151812,0.02114 -0.187332,-0.01129 -0.372268,-0.04649 -0.56116,-0.05259 -0.844814,-0.0273 -1.638511,-0.04031 -2.477782,0.06316 -0.0012,1.54e-4 -0.698078,0.02607 -0.701044,0.03145 -0.05188,0.0941 0.05635,0.301731 0.06994,0.399861 0.06149,0.444032 -0.02648,0.911819 0.03524,1.356816 0.0026,0.01903 0.04397,0.416655 0.01166,0.431307 -0.115983,0.0526 -0.571968,-0.113747 -0.712972,-0.136901 -0.365032,-0.05994 -0.756395,0.01057 -1.12205,0.01057 -0.02741,0 -0.349592,-0.03087 -0.374107,0 -0.126464,0.159251 0.02385,0.456255 0.03524,0.631103 0.0076,0.117246 0.123351,1.229041 0.03497,1.262204 -0.269028,0.100951 -0.606692,0.08404 -0.888369,0.08404 -0.156115,0 -0.310957,-0.0103 -0.467363,-0.0103 -0.181038,0 -0.377695,-0.09146 -0.537575,-0.157775 z"
       id="path1209" />
    <path
       style="fill:none;stroke:#000000;stroke-width:1;stroke-linecap:round;stroke-dasharray:none"
       d="m 44.649864,32.492995 c -0.01607,1.865718 -0.04338,3.736212 0.106822,5.593287 0.03789,0.468523 -0.06885,0.94003 -0.04278,1.410438 0.02214,0.399624 0.138719,0.779578 0.138719,1.179981 0,0.816281 -0.218351,1.617933 -0.149352,2.427467 0.02684,0.314935 0.07274,0.631908 0.08531,0.949771 0.0095,0.239013 -0.03085,0.492429 0,0.729205 0.0731,0.56098 0.106574,1.114035 0.106574,1.688619 0,0.283963 0.12778,0.566077 0.07468,0.853829"
       id="path1221" />
    <path
       style="fill:none;stroke:#000000;stroke-width:1;stroke-linecap:round;stroke-dasharray:none"
       d="m 44.692642,47.958855 c 0.300046,-0.06888 0.380911,-0.306502 0.607547,-0.460667 0.160244,-0.109003 0.65975,-0.04598 0.831575,-0.05761 0.465566,-0.03153 0.940971,-0.0589 1.407224,-0.06701 0.282945,-0.0049 0.766641,0.08086 1.03409,0 0.446157,-0.134885 1.542417,-0.02016 2.004138,-0.02893 1.351446,-0.02567 2.691287,-0.143076 4.040421,-0.220566 0.546823,-0.03141 1.011137,-0.03376 1.545696,0.01929 0.308908,0.03065 0.598353,0.162408 0.906251,0.201279 0.101202,0.01278 0.0162,0.0059 0.18125,0.06726 0.151937,0.05646 0.408256,0.03833 0.565016,0.03833 0.137194,0 0.278907,0.01123 0.415664,0 0.05002,-0.0041 0.199496,-0.01698 0.149352,-0.01904 -0.0853,-0.0035 -0.170618,-0.0064 -0.255926,-0.0096"
       id="path1223" />
    <path
       style="fill:none;stroke:#000000;stroke-width:1;stroke-linecap:round;stroke-dasharray:none"
       d="m 58.455542,47.85327 c -0.32854,-0.710225 -0.118741,-1.437953 -0.191883,-2.158683 -0.01551,-0.152874 -0.111382,-0.257434 -0.117454,-0.412696 -0.0051,-0.130934 0.02832,-0.261054 0.02151,-0.393162 -0.03474,-0.674303 -0.156278,-1.341 -0.191883,-2.015018 -0.05256,-0.995054 0.01063,-1.992341 0.01063,-2.983581 0,-0.539737 -0.07979,-1.083155 -0.05341,-1.631005 0.0049,-0.100861 0.04278,-0.188805 0.04278,-0.287824 0,-0.705856 -0.08441,-1.456179 -0.01088,-2.158683 0.0386,-0.368779 0.14685,-0.741078 0.117454,-1.11297 -0.0242,-0.306201 -0.0981,-0.589948 -0.08531,-0.9018 0.01115,-0.271723 0.08531,-0.535302 0.08531,-0.806106 0,-0.08917 -0.06075,-0.761028 -0.117454,-0.748244"
       id="path1225" />
    <path
       style="fill:none;stroke:#000000;stroke-width:1;stroke-linecap:round;stroke-dasharray:none"
       d="m 44.905791,32.349083 c 0.860151,-0.04042 1.704321,-0.203065 2.558521,-0.287825 1.15887,-0.114991 2.326789,0.02804 3.486037,0.0863 1.124227,0.0565 2.255946,-0.0417 3.379463,0.04797 0.618567,0.04937 1.236855,0.01687 1.855033,0.06726 0.09898,0.0081 1.274678,0.03132 1.247239,0.105337 -0.0083,0.02244 -0.03561,0.03198 -0.05341,0.04797"
       id="path1229" />
    <path
       style="fill:none;stroke:#000000;stroke-width:1;stroke-linecap:round;stroke-dasharray:none"
       d="m 48.700918,29.787347 c -0.158007,0.549885 -0.0638,1.122914 -0.0638,1.688619 0,0.325737 -0.02007,0.730081 0.05316,1.045712 0.06927,0.29856 0.207457,1.036258 0.05341,1.314497 -0.01993,0.03599 -0.689887,0.0065 -0.81031,0.01904 -0.426275,0.04449 -0.830931,0.184098 -1.236606,0.316755 -0.07342,0.02401 -0.168639,-0.01384 -0.245294,0 -0.0308,0.0056 -0.06676,0.05358 -0.07443,0.07665 -0.08465,0.254598 0.0638,1.136292 0.0638,1.458409 0,0.151468 -0.08806,0.400392 -0.04253,0.537322 0.02961,0.08907 0.920478,-0.182171 1.002192,-0.201527 0.37825,-0.0896 0.945767,-0.01545 1.343181,-0.02893 0.798967,-0.02711 1.59152,-0.12601 2.387903,-0.172596 0.595693,-0.03485 1.204259,-0.0096 1.801622,-0.0096 0.474104,0 0.954466,-0.03644 1.428489,-0.0096 0.310311,0.01754 0.609675,0.09168 0.916884,0.105585 0.33714,0.01525 0.664999,-0.07665 0.99156,-0.07665 0.23878,0 -0.08455,-1.157131 -0.138719,-1.352823 -0.05413,-0.195529 -0.0079,-0.471259 0.01063,-0.671591 0.0014,-0.01544 0.03663,-0.179916 0.02127,-0.182239 -0.310268,-0.0469 -1.997068,0.05383 -2.164123,-0.09594 -0.04016,-0.03601 0,-0.290659 0,-0.345439 0,-0.644822 0.08765,-1.262312 -0.0319,-1.909185 -0.08189,-0.443075 -0.189779,-0.912225 -0.458442,-1.27617 -0.122893,-0.166477 -0.347215,-0.26542 -0.511605,-0.383766 -0.697074,-0.501828 -1.658966,-0.567591 -2.483845,-0.393162 -0.335616,0.07097 -0.701572,0.194928 -1.023458,0.316508 -0.06455,0.02438 -0.408511,0.276427 -0.447809,0.278181 -0.114749,0.0051 -0.279664,-0.144938 -0.341235,-0.04797 -0.08202,0.129168 0.07649,0.298271 0.08531,0.451024 0.0041,0.07126 -0.103209,0.241952 -0.117206,0.326151 -0.07483,0.450143 -0.07052,0.934381 -0.191883,1.371864"
       id="path1233" />
    <path
       style="fill:none;stroke:#000000;stroke-width:1;stroke-linecap:round;stroke-dasharray:none"
       d="m 59.334166,27.804607 c -1.776887,1.271112 -3.216156,3.038632 -4.673675,4.653742 -2.158359,2.391726 -4.326419,4.766616 -6.045529,7.503408 -0.448041,0.713272 -1.775579,3.112488 -2.186294,3.921131 -0.532917,1.049244 -1.311075,2.798791 -1.959691,3.934769 -0.307434,0.538435 -0.563873,0.957484 -0.949772,1.397731 -0.201284,0.229632 -0.40956,0.396736 -0.588187,0.637495"
       id="path1239" />
    <path
       style="fill:none;stroke:#000000;stroke-width:1;stroke-linecap:round;stroke-dasharray:none"
       d="M 41.122045,26.068021 C 47.549558,33.829037 53.97707,41.590054 60.404582,49.35107"
       id="path1241" />
  </g>
</svg>
